%YAML 1.1
%TAG !u! tag:unity3d.com,2011:
--- !u!1045 &1
EditorBuildSettings:
  m_ObjectHideFlags: 0
  serializedVersion: 2
  m_Scenes:
  - enabled: 1
    path: Assets/Scenes/SampleScene.unity
    guid: 2cda990e2423bbf4892e6590ba056729
  - enabled: 1
    path: Assets/Scenes/win.unity
    guid: e3ee139b5ecc50f46bf1a33cfffed7a9
  - enabled: 1
    path: Assets/Scenes/lose.unity
    guid: c8743b7919cf1ea4cb74fa73b4a21f26
  - enabled: 1
    path: Assets/Scenes/Roberto.unity
    guid: 9bef1d93781c3a347be7948e28c427ea
  m_configObjects: {}
