{
  "BurstVersion": "ed7d93ab-72ae-4d46-9fc9-027b31698d75",
  "Assemblies": [
    {
      "FullName": "UnityEngine.CoreModule, Version=0.0.0.0, Culture=neutral, PublicKeyToken=null",
      "LastWriteTime": "2022-05-25T19:43:06Z"
    },
    {
      "FullName": "Unity.Collections, Version=0.0.0.0, Culture=neutral, PublicKeyToken=null",
      "LastWriteTime": "2023-02-09T15:00:20.725663Z"
    },
    {
      "FullName": "mscorlib, Version=4.0.0.0, Culture=neutral, PublicKeyToken=b77a5c561934e089",
      "LastWriteTime": "2022-05-25T19:28:24Z"
    },
    {
      "FullName": "netstandard, Version=2.1.0.0, Culture=neutral, PublicKeyToken=cc7b13ffcd2ddd51",
      "LastWriteTime": "2022-05-25T19:28:24Z"
    },
    {
      "FullName": "Unity.Mathematics, Version=1.0.0.0, Culture=neutral, PublicKeyToken=null",
      "LastWriteTime": "2023-02-09T15:00:20.5780296Z"
    },
    {
      "FullName": "Unity.Burst, Version=0.0.0.0, Culture=neutral, PublicKeyToken=null",
      "LastWriteTime": "2023-02-09T15:00:20.6139352Z"
    },
    {
      "FullName": "Unity.Burst.Unsafe, Version=4.0.5.0, Culture=neutral, PublicKeyToken=null",
      "LastWriteTime": "2022-06-08T12:19:43Z"
    },
    {
      "FullName": "Unity.2D.SpriteShape.Runtime, Version=0.0.0.0, Culture=neutral, PublicKeyToken=null",
      "LastWriteTime": "2023-02-09T15:00:20.5899971Z"
    },
    {
      "FullName": "UnityEngine.SpriteShapeModule, Version=0.0.0.0, Culture=neutral, PublicKeyToken=null",
      "LastWriteTime": "2022-05-25T19:43:06Z"
    },
    {
      "FullName": "Unity.2D.Common.Runtime, Version=0.0.0.0, Culture=neutral, PublicKeyToken=null",
      "LastWriteTime": "2023-02-09T15:00:20.5740401Z"
    },
    {
      "FullName": "Unity.2D.Animation.Runtime, Version=0.0.0.0, Culture=neutral, PublicKeyToken=null",
      "LastWriteTime": "2023-02-09T15:00:20.5870051Z"
    },
    {
      "FullName": "mscorlib, Version=0.0.0.0, Culture=neutral, PublicKeyToken=null",
      "LastWriteTime": "2022-05-25T19:28:24Z"
    },
    {
      "FullName": "Unity.Netcode.Runtime, Version=0.0.0.0, Culture=neutral, PublicKeyToken=null",
      "LastWriteTime": "2023-02-09T15:00:21.3226835Z"
    },
    {
      "FullName": "Unity.Networking.Transport, Version=0.0.0.0, Culture=neutral, PublicKeyToken=null",
      "LastWriteTime": "2023-02-09T15:00:20.5650643Z"
    },
    {
      "FullName": "Unity.Collections.LowLevel.ILSupport, Version=0.0.0.0, Culture=neutral, PublicKeyToken=null",
      "LastWriteTime": "2022-06-14T17:27:44Z"
    },
    {
      "FullName": "UnityEditor.CoreModule, Version=0.0.0.0, Culture=neutral, PublicKeyToken=null",
      "LastWriteTime": "2022-05-25T19:43:06Z"
    },
    {
      "FullName": "Unity.2D.Animation.Editor, Version=0.0.0.0, Culture=neutral, PublicKeyToken=null",
      "LastWriteTime": "2023-02-09T15:00:20.590998Z"
    },
    {
      "FullName": "UnityEngine.TLSModule, Version=0.0.0.0, Culture=neutral, PublicKeyToken=null",
      "LastWriteTime": "2022-05-25T19:43:06Z"
    }
  ],
  "Functions": [
    {
      "FullName": "Unity.Jobs.IJobExtensions+JobStruct`1[[Unity.Collections.NativeQueueDisposeJob, Unity.Collections, Version=0.0.0.0, Culture=neutral, PublicKeyToken=null]], UnityEngine.CoreModule, Version=0.0.0.0, Culture=neutral, PublicKeyToken=null::Execute(Unity.Collections.NativeQueueDisposeJob&, Unity.Collections, Version=0.0.0.0, Culture=neutral, PublicKeyToken=null|System.IntPtr, mscorlib, Version=4.0.0.0, Culture=neutral, PublicKeyToken=b77a5c561934e089|System.IntPtr, mscorlib, Version=4.0.0.0, Culture=neutral, PublicKeyToken=b77a5c561934e089|Unity.Jobs.LowLevel.Unsafe.JobRanges&, UnityEngine.CoreModule, Version=0.0.0.0, Culture=neutral, PublicKeyToken=null|System.Int32, mscorlib, Version=4.0.0.0, Culture=neutral, PublicKeyToken=b77a5c561934e089)",
      "ModuleOptionsHash": 15221144590354301703,
      "ModuleHash": "baa75724182425a520c6aaa0fb8fa276",
      "LinkName": "8F02018D2DAA4F36",
      "AssemblyDependencyIndices": [
        0,
        1,
        2,
        3,
        4,
        5,
        6
      ]
    },
    {
      "FullName": "Unity.Jobs.IJobExtensions+JobStruct`1[[UnityEngine.U2D.SpriteShapeGenerator, Unity.2D.SpriteShape.Runtime, Version=0.0.0.0, Culture=neutral, PublicKeyToken=null]], UnityEngine.CoreModule, Version=0.0.0.0, Culture=neutral, PublicKeyToken=null::Execute(UnityEngine.U2D.SpriteShapeGenerator&, Unity.2D.SpriteShape.Runtime, Version=0.0.0.0, Culture=neutral, PublicKeyToken=null|System.IntPtr, mscorlib, Version=4.0.0.0, Culture=neutral, PublicKeyToken=b77a5c561934e089|System.IntPtr, mscorlib, Version=4.0.0.0, Culture=neutral, PublicKeyToken=b77a5c561934e089|Unity.Jobs.LowLevel.Unsafe.JobRanges&, UnityEngine.CoreModule, Version=0.0.0.0, Culture=neutral, PublicKeyToken=null|System.Int32, mscorlib, Version=4.0.0.0, Culture=neutral, PublicKeyToken=b77a5c561934e089)",
      "ModuleOptionsHash": 15221144590354301703,
      "ModuleHash": "e107dd3cf56a7f5c1bd4ee8d91907e7c",
      "LinkName": "104599FDEEB36FAE",
      "AssemblyDependencyIndices": [
        0,
        7,
        2,
        4,
        8,
        9,
        3
      ]
    },
    {
      "FullName": "Unity.Jobs.IJobExtensions+JobStruct`1[[Unity.Collections.NativeReferenceDisposeJob, Unity.Collections, Version=0.0.0.0, Culture=neutral, PublicKeyToken=null]], UnityEngine.CoreModule, Version=0.0.0.0, Culture=neutral, PublicKeyToken=null::Execute(Unity.Collections.NativeReferenceDisposeJob&, Unity.Collections, Version=0.0.0.0, Culture=neutral, PublicKeyToken=null|System.IntPtr, mscorlib, Version=4.0.0.0, Culture=neutral, PublicKeyToken=b77a5c561934e089|System.IntPtr, mscorlib, Version=4.0.0.0, Culture=neutral, PublicKeyToken=b77a5c561934e089|Unity.Jobs.LowLevel.Unsafe.JobRanges&, UnityEngine.CoreModule, Version=0.0.0.0, Culture=neutral, PublicKeyToken=null|System.Int32, mscorlib, Version=4.0.0.0, Culture=neutral, PublicKeyToken=b77a5c561934e089)",
      "ModuleOptionsHash": 15221144590354301703,
      "ModuleHash": "11a4539bd9241e4174c6d424029d3467",
      "LinkName": "703CA6DADE3415F0",
      "AssemblyDependencyIndices": [
        0,
        1,
        2,
        3,
        4,
        5,
        6
      ]
    },
    {
      "FullName": "Unity.Jobs.IJobExtensions+JobStruct`1[[Unity.Collections.NativeListDisposeJob, Unity.Collections, Version=0.0.0.0, Culture=neutral, PublicKeyToken=null]], UnityEngine.CoreModule, Version=0.0.0.0, Culture=neutral, PublicKeyToken=null::Execute(Unity.Collections.NativeListDisposeJob&, Unity.Collections, Version=0.0.0.0, Culture=neutral, PublicKeyToken=null|System.IntPtr, mscorlib, Version=4.0.0.0, Culture=neutral, PublicKeyToken=b77a5c561934e089|System.IntPtr, mscorlib, Version=4.0.0.0, Culture=neutral, PublicKeyToken=b77a5c561934e089|Unity.Jobs.LowLevel.Unsafe.JobRanges&, UnityEngine.CoreModule, Version=0.0.0.0, Culture=neutral, PublicKeyToken=null|System.Int32, mscorlib, Version=4.0.0.0, Culture=neutral, PublicKeyToken=b77a5c561934e089)",
      "ModuleOptionsHash": 15221144590354301703,
      "ModuleHash": "5f6b18f6b969f098a88bcc7f047a332a",
      "LinkName": "352B6D5D03F8F621",
      "AssemblyDependencyIndices": [
        0,
        1,
        2,
        3,
        4,
        5,
        6
      ]
    },
    {
      "FullName": "Unity.Jobs.IJobExtensions+JobStruct`1[[UnityEngine.U2D.Animation.PrepareDeformJob, Unity.2D.Animation.Runtime, Version=0.0.0.0, Culture=neutral, PublicKeyToken=null]], UnityEngine.CoreModule, Version=0.0.0.0, Culture=neutral, PublicKeyToken=null::Execute(UnityEngine.U2D.Animation.PrepareDeformJob&, Unity.2D.Animation.Runtime, Version=0.0.0.0, Culture=neutral, PublicKeyToken=null|System.IntPtr, mscorlib, Version=4.0.0.0, Culture=neutral, PublicKeyToken=b77a5c561934e089|System.IntPtr, mscorlib, Version=4.0.0.0, Culture=neutral, PublicKeyToken=b77a5c561934e089|Unity.Jobs.LowLevel.Unsafe.JobRanges&, UnityEngine.CoreModule, Version=0.0.0.0, Culture=neutral, PublicKeyToken=null|System.Int32, mscorlib, Version=4.0.0.0, Culture=neutral, PublicKeyToken=b77a5c561934e089)",
      "ModuleOptionsHash": 15221144590354301703,
      "ModuleHash": "5f56b6a0f118ccb52f6d1c0aa714d000",
      "LinkName": "03BB6990D3D7DB46",
      "AssemblyDependencyIndices": [
        0,
        10,
        2,
        4
      ]
    },
    {
      "FullName": "Unity.Jobs.IJobExtensions+JobStruct`1[[UnityEngine.U2D.Animation.FillPerSkinJobSingleThread, Unity.2D.Animation.Runtime, Version=0.0.0.0, Culture=neutral, PublicKeyToken=null]], UnityEngine.CoreModule, Version=0.0.0.0, Culture=neutral, PublicKeyToken=null::Execute(UnityEngine.U2D.Animation.FillPerSkinJobSingleThread&, Unity.2D.Animation.Runtime, Version=0.0.0.0, Culture=neutral, PublicKeyToken=null|System.IntPtr, mscorlib, Version=4.0.0.0, Culture=neutral, PublicKeyToken=b77a5c561934e089|System.IntPtr, mscorlib, Version=4.0.0.0, Culture=neutral, PublicKeyToken=b77a5c561934e089|Unity.Jobs.LowLevel.Unsafe.JobRanges&, UnityEngine.CoreModule, Version=0.0.0.0, Culture=neutral, PublicKeyToken=null|System.Int32, mscorlib, Version=4.0.0.0, Culture=neutral, PublicKeyToken=b77a5c561934e089)",
      "ModuleOptionsHash": 15221144590354301703,
      "ModuleHash": "2d8d7aa10805ccfe18cf07c7ae2e4ee5",
      "LinkName": "021A15CCA2B997C2",
      "AssemblyDependencyIndices": [
        0,
        10,
        2,
        4,
        3
      ]
    },
    {
      "FullName": "Unity.Jobs.IJobExtensions+JobStruct`1[[Unity.Collections.LowLevel.Unsafe.UnsafeHashMapDisposeJob, Unity.Collections, Version=0.0.0.0, Culture=neutral, PublicKeyToken=null]], UnityEngine.CoreModule, Version=0.0.0.0, Culture=neutral, PublicKeyToken=null::Execute(Unity.Collections.LowLevel.Unsafe.UnsafeHashMapDisposeJob&, Unity.Collections, Version=0.0.0.0, Culture=neutral, PublicKeyToken=null|System.IntPtr, mscorlib, Version=4.0.0.0, Culture=neutral, PublicKeyToken=b77a5c561934e089|System.IntPtr, mscorlib, Version=4.0.0.0, Culture=neutral, PublicKeyToken=b77a5c561934e089|Unity.Jobs.LowLevel.Unsafe.JobRanges&, UnityEngine.CoreModule, Version=0.0.0.0, Culture=neutral, PublicKeyToken=null|System.Int32, mscorlib, Version=4.0.0.0, Culture=neutral, PublicKeyToken=b77a5c561934e089)",
      "ModuleOptionsHash": 15221144590354301703,
      "ModuleHash": "bd94c253c1a726d9f9fc4b08fd2bdba3",
      "LinkName": "0AFB48C3B9CA6ECF",
      "AssemblyDependencyIndices": [
        0,
        1,
        11,
        3,
        2,
        4,
        5,
        6
      ]
    },
    {
      "FullName": "Unity.Jobs.IJobExtensions+JobStruct`1[[Unity.Collections.NativeStream+ConstructJobList, Unity.Collections, Version=0.0.0.0, Culture=neutral, PublicKeyToken=null]], UnityEngine.CoreModule, Version=0.0.0.0, Culture=neutral, PublicKeyToken=null::Execute(Unity.Collections.NativeStream+ConstructJobList&, Unity.Collections, Version=0.0.0.0, Culture=neutral, PublicKeyToken=null|System.IntPtr, mscorlib, Version=4.0.0.0, Culture=neutral, PublicKeyToken=b77a5c561934e089|System.IntPtr, mscorlib, Version=4.0.0.0, Culture=neutral, PublicKeyToken=b77a5c561934e089|Unity.Jobs.LowLevel.Unsafe.JobRanges&, UnityEngine.CoreModule, Version=0.0.0.0, Culture=neutral, PublicKeyToken=null|System.Int32, mscorlib, Version=4.0.0.0, Culture=neutral, PublicKeyToken=b77a5c561934e089)",
      "ModuleOptionsHash": 15221144590354301703,
      "ModuleHash": "8e5a18d78cda372228fe15805a79c48a",
      "LinkName": "846F65225A066FD6",
      "AssemblyDependencyIndices": [
        0,
        1,
        5,
        2,
        3,
        4,
        6
      ]
    },
    {
      "FullName": "Unity.Jobs.IJobExtensions+JobStruct`1[[Unity.Collections.NativeStream+ConstructJob, Unity.Collections, Version=0.0.0.0, Culture=neutral, PublicKeyToken=null]], UnityEngine.CoreModule, Version=0.0.0.0, Culture=neutral, PublicKeyToken=null::Execute(Unity.Collections.NativeStream+ConstructJob&, Unity.Collections, Version=0.0.0.0, Culture=neutral, PublicKeyToken=null|System.IntPtr, mscorlib, Version=4.0.0.0, Culture=neutral, PublicKeyToken=b77a5c561934e089|System.IntPtr, mscorlib, Version=4.0.0.0, Culture=neutral, PublicKeyToken=b77a5c561934e089|Unity.Jobs.LowLevel.Unsafe.JobRanges&, UnityEngine.CoreModule, Version=0.0.0.0, Culture=neutral, PublicKeyToken=null|System.Int32, mscorlib, Version=4.0.0.0, Culture=neutral, PublicKeyToken=b77a5c561934e089)",
      "ModuleOptionsHash": 15221144590354301703,
      "ModuleHash": "7bcf6b288cfe6586dfd23d4900eda63e",
      "LinkName": "1F3827F16D435181",
      "AssemblyDependencyIndices": [
        0,
        1,
        2,
        5,
        3,
        4,
        6
      ]
    },
    {
      "FullName": "Unity.Jobs.IJobExtensions+JobStruct`1[[Unity.Collections.LowLevel.Unsafe.UnsafeHashMapDataDisposeJob, Unity.Collections, Version=0.0.0.0, Culture=neutral, PublicKeyToken=null]], UnityEngine.CoreModule, Version=0.0.0.0, Culture=neutral, PublicKeyToken=null::Execute(Unity.Collections.LowLevel.Unsafe.UnsafeHashMapDataDisposeJob&, Unity.Collections, Version=0.0.0.0, Culture=neutral, PublicKeyToken=null|System.IntPtr, mscorlib, Version=4.0.0.0, Culture=neutral, PublicKeyToken=b77a5c561934e089|System.IntPtr, mscorlib, Version=4.0.0.0, Culture=neutral, PublicKeyToken=b77a5c561934e089|Unity.Jobs.LowLevel.Unsafe.JobRanges&, UnityEngine.CoreModule, Version=0.0.0.0, Culture=neutral, PublicKeyToken=null|System.Int32, mscorlib, Version=4.0.0.0, Culture=neutral, PublicKeyToken=b77a5c561934e089)",
      "ModuleOptionsHash": 15221144590354301703,
      "ModuleHash": "7e576cf564b307e59c177fa9f43f076b",
      "LinkName": "C0BB42F31A3089F2",
      "AssemblyDependencyIndices": [
        0,
        1,
        6,
        2,
        3,
        4,
        5
      ]
    },
    {
      "FullName": "Unity.Jobs.IJobExtensions+JobStruct`1[[Unity.Netcode.Transports.UTP.UnityTransport+SendBatchedMessagesJob, Unity.Netcode.Runtime, Version=0.0.0.0, Culture=neutral, PublicKeyToken=null]], UnityEngine.CoreModule, Version=0.0.0.0, Culture=neutral, PublicKeyToken=null::Execute(Unity.Netcode.Transports.UTP.UnityTransport+SendBatchedMessagesJob&, Unity.Netcode.Runtime, Version=0.0.0.0, Culture=neutral, PublicKeyToken=null|System.IntPtr, mscorlib, Version=4.0.0.0, Culture=neutral, PublicKeyToken=b77a5c561934e089|System.IntPtr, mscorlib, Version=4.0.0.0, Culture=neutral, PublicKeyToken=b77a5c561934e089|Unity.Jobs.LowLevel.Unsafe.JobRanges&, UnityEngine.CoreModule, Version=0.0.0.0, Culture=neutral, PublicKeyToken=null|System.Int32, mscorlib, Version=4.0.0.0, Culture=neutral, PublicKeyToken=b77a5c561934e089)",
      "ModuleOptionsHash": 15221144590354301703,
      "ModuleHash": "78da2545aa3dde5a4b8c102e1077322f",
      "LinkName": "F281C34182B3E0EF",
      "AssemblyDependencyIndices": [
        0,
        12,
        13,
        14,
        2,
        3,
        1,
        5,
        6,
        4
      ]
    },
    {
      "FullName": "Unity.Collections.AllocatorManager+StackAllocator, Unity.Collections, Version=0.0.0.0, Culture=neutral, PublicKeyToken=null::Try(System.IntPtr, mscorlib, Version=4.0.0.0, Culture=neutral, PublicKeyToken=b77a5c561934e089|Unity.Collections.AllocatorManager+Block&, Unity.Collections, Version=0.0.0.0, Culture=neutral, PublicKeyToken=null)",
      "ModuleOptionsHash": 15221144590354301703,
      "ModuleHash": "21aba63ca1f79395ac617caccd38bf27",
      "LinkName": "31D71C750A9E4345",
      "AssemblyDependencyIndices": [
        1,
        15,
        3,
        2,
        5,
        0
      ]
    },
    {
      "FullName": "Unity.Burst.Intrinsics.X86, Unity.Burst, Version=0.0.0.0, Culture=neutral, PublicKeyToken=null::DoGetCSRTrampoline()",
      "ModuleOptionsHash": 15221144590354301703,
      "ModuleHash": "ea4c4252400c0ac3e048267d6467a633",
      "LinkName": "CDCA4A5193BE5947",
      "AssemblyDependencyIndices": [
        5,
        3,
        2
      ]
    },
    {
      "FullName": "Unity.Burst.Intrinsics.X86, Unity.Burst, Version=0.0.0.0, Culture=neutral, PublicKeyToken=null::DoSetCSRTrampoline(System.Int32, mscorlib, Version=4.0.0.0, Culture=neutral, PublicKeyToken=b77a5c561934e089)",
      "ModuleOptionsHash": 15221144590354301703,
      "ModuleHash": "92b69a752a42e9c6bd1cdba2a7cfd7d0",
      "LinkName": "801E9A000BB37B05",
      "AssemblyDependencyIndices": [
        5,
        3,
        2
      ]
    },
    {
      "FullName": "Unity.Collections.AllocatorManager+SlabAllocator, Unity.Collections, Version=0.0.0.0, Culture=neutral, PublicKeyToken=null::Try(System.IntPtr, mscorlib, Version=4.0.0.0, Culture=neutral, PublicKeyToken=b77a5c561934e089|Unity.Collections.AllocatorManager+Block&, Unity.Collections, Version=0.0.0.0, Culture=neutral, PublicKeyToken=null)",
      "ModuleOptionsHash": 15221144590354301703,
      "ModuleHash": "66bada6dc3174edd2aefa953ca5c7869",
      "LinkName": "8CC3C64CA4A3FEDE",
      "AssemblyDependencyIndices": [
        1,
        3,
        2,
        5,
        0,
        4,
        15
      ]
    },
    {
      "FullName": "Unity.Jobs.IJobExtensions+JobStruct`1[[Unity.Collections.LowLevel.Unsafe.UnsafeDisposeJob, Unity.Collections, Version=0.0.0.0, Culture=neutral, PublicKeyToken=null]], UnityEngine.CoreModule, Version=0.0.0.0, Culture=neutral, PublicKeyToken=null::Execute(Unity.Collections.LowLevel.Unsafe.UnsafeDisposeJob&, Unity.Collections, Version=0.0.0.0, Culture=neutral, PublicKeyToken=null|System.IntPtr, mscorlib, Version=4.0.0.0, Culture=neutral, PublicKeyToken=b77a5c561934e089|System.IntPtr, mscorlib, Version=4.0.0.0, Culture=neutral, PublicKeyToken=b77a5c561934e089|Unity.Jobs.LowLevel.Unsafe.JobRanges&, UnityEngine.CoreModule, Version=0.0.0.0, Culture=neutral, PublicKeyToken=null|System.Int32, mscorlib, Version=4.0.0.0, Culture=neutral, PublicKeyToken=b77a5c561934e089)",
      "ModuleOptionsHash": 15221144590354301703,
      "ModuleHash": "1e083ac4efa5e26ca91c41a0724e343f",
      "LinkName": "5AAE3265C3BCB248",
      "AssemblyDependencyIndices": [
        0,
        1,
        2,
        3,
        4,
        5,
        6
      ]
    },
    {
      "FullName": "Unity.Jobs.IJobExtensions+JobStruct`1[[Unity.Collections.LowLevel.Unsafe.UnsafeStream+DisposeJob, Unity.Collections, Version=0.0.0.0, Culture=neutral, PublicKeyToken=null]], UnityEngine.CoreModule, Version=0.0.0.0, Culture=neutral, PublicKeyToken=null::Execute(Unity.Collections.LowLevel.Unsafe.UnsafeStream+DisposeJob&, Unity.Collections, Version=0.0.0.0, Culture=neutral, PublicKeyToken=null|System.IntPtr, mscorlib, Version=4.0.0.0, Culture=neutral, PublicKeyToken=b77a5c561934e089|System.IntPtr, mscorlib, Version=4.0.0.0, Culture=neutral, PublicKeyToken=b77a5c561934e089|Unity.Jobs.LowLevel.Unsafe.JobRanges&, UnityEngine.CoreModule, Version=0.0.0.0, Culture=neutral, PublicKeyToken=null|System.Int32, mscorlib, Version=4.0.0.0, Culture=neutral, PublicKeyToken=b77a5c561934e089)",
      "ModuleOptionsHash": 15221144590354301703,
      "ModuleHash": "32e8bae2b645ad9921b587d14b5d03c5",
      "LinkName": "A8134E26EAC44A70",
      "AssemblyDependencyIndices": [
        0,
        1,
        2,
        3,
        4,
        5,
        6
      ]
    },
    {
      "FullName": "Unity.Jobs.IJobExtensions+JobStruct`1[[Unity.Collections.LowLevel.Unsafe.UnsafeStream+ConstructJobList, Unity.Collections, Version=0.0.0.0, Culture=neutral, PublicKeyToken=null]], UnityEngine.CoreModule, Version=0.0.0.0, Culture=neutral, PublicKeyToken=null::Execute(Unity.Collections.LowLevel.Unsafe.UnsafeStream+ConstructJobList&, Unity.Collections, Version=0.0.0.0, Culture=neutral, PublicKeyToken=null|System.IntPtr, mscorlib, Version=4.0.0.0, Culture=neutral, PublicKeyToken=b77a5c561934e089|System.IntPtr, mscorlib, Version=4.0.0.0, Culture=neutral, PublicKeyToken=b77a5c561934e089|Unity.Jobs.LowLevel.Unsafe.JobRanges&, UnityEngine.CoreModule, Version=0.0.0.0, Culture=neutral, PublicKeyToken=null|System.Int32, mscorlib, Version=4.0.0.0, Culture=neutral, PublicKeyToken=b77a5c561934e089)",
      "ModuleOptionsHash": 15221144590354301703,
      "ModuleHash": "e90f545a94e031052f82fc198198a276",
      "LinkName": "18F4EDFD51FD6159",
      "AssemblyDependencyIndices": [
        0,
        1,
        2,
        3,
        4,
        5,
        6
      ]
    },
    {
      "FullName": "Unity.Jobs.IJobExtensions+JobStruct`1[[Unity.Networking.Transport.BaselibNetworkInterface+FlushSendJob, Unity.Networking.Transport, Version=0.0.0.0, Culture=neutral, PublicKeyToken=null]], UnityEngine.CoreModule, Version=0.0.0.0, Culture=neutral, PublicKeyToken=null::Execute(Unity.Networking.Transport.BaselibNetworkInterface+FlushSendJob&, Unity.Networking.Transport, Version=0.0.0.0, Culture=neutral, PublicKeyToken=null|System.IntPtr, mscorlib, Version=4.0.0.0, Culture=neutral, PublicKeyToken=b77a5c561934e089|System.IntPtr, mscorlib, Version=4.0.0.0, Culture=neutral, PublicKeyToken=b77a5c561934e089|Unity.Jobs.LowLevel.Unsafe.JobRanges&, UnityEngine.CoreModule, Version=0.0.0.0, Culture=neutral, PublicKeyToken=null|System.Int32, mscorlib, Version=4.0.0.0, Culture=neutral, PublicKeyToken=b77a5c561934e089)",
      "ModuleOptionsHash": 15221144590354301703,
      "ModuleHash": "33f05d99d445f82191932c81e120e8a9",
      "LinkName": "6489B93DD85640DD",
      "AssemblyDependencyIndices": [
        0,
        13,
        2,
        3,
        1
      ]
    },
    {
      "FullName": "Unity.Jobs.IJobExtensions+JobStruct`1[[Unity.Collections.LowLevel.Unsafe.UnsafeStream+ConstructJob, Unity.Collections, Version=0.0.0.0, Culture=neutral, PublicKeyToken=null]], UnityEngine.CoreModule, Version=0.0.0.0, Culture=neutral, PublicKeyToken=null::Execute(Unity.Collections.LowLevel.Unsafe.UnsafeStream+ConstructJob&, Unity.Collections, Version=0.0.0.0, Culture=neutral, PublicKeyToken=null|System.IntPtr, mscorlib, Version=4.0.0.0, Culture=neutral, PublicKeyToken=b77a5c561934e089|System.IntPtr, mscorlib, Version=4.0.0.0, Culture=neutral, PublicKeyToken=b77a5c561934e089|Unity.Jobs.LowLevel.Unsafe.JobRanges&, UnityEngine.CoreModule, Version=0.0.0.0, Culture=neutral, PublicKeyToken=null|System.Int32, mscorlib, Version=4.0.0.0, Culture=neutral, PublicKeyToken=b77a5c561934e089)",
      "ModuleOptionsHash": 15221144590354301703,
      "ModuleHash": "2ee1e7e78634d651a67baef244e62f37",
      "LinkName": "EC65C6FB1FDE45E6",
      "AssemblyDependencyIndices": [
        0,
        1,
        2,
        3,
        4,
        5,
        6
      ]
    },
    {
      "FullName": "Unity.Jobs.IJobExtensions+JobStruct`1[[Unity.Networking.Transport.BaselibNetworkInterface+ReceiveJob, Unity.Networking.Transport, Version=0.0.0.0, Culture=neutral, PublicKeyToken=null]], UnityEngine.CoreModule, Version=0.0.0.0, Culture=neutral, PublicKeyToken=null::Execute(Unity.Networking.Transport.BaselibNetworkInterface+ReceiveJob&, Unity.Networking.Transport, Version=0.0.0.0, Culture=neutral, PublicKeyToken=null|System.IntPtr, mscorlib, Version=4.0.0.0, Culture=neutral, PublicKeyToken=b77a5c561934e089|System.IntPtr, mscorlib, Version=4.0.0.0, Culture=neutral, PublicKeyToken=b77a5c561934e089|Unity.Jobs.LowLevel.Unsafe.JobRanges&, UnityEngine.CoreModule, Version=0.0.0.0, Culture=neutral, PublicKeyToken=null|System.Int32, mscorlib, Version=4.0.0.0, Culture=neutral, PublicKeyToken=b77a5c561934e089)",
      "ModuleOptionsHash": 15221144590354301703,
      "ModuleHash": "82691ee22f4dbb467db1c3cbe923a75c",
      "LinkName": "938E4234870C040C",
      "AssemblyDependencyIndices": [
        0,
        13,
        2,
        3,
        1,
        4,
        5,
        6,
        14
      ]
    },
    {
      "FullName": "Unity.Jobs.IJobExtensions+JobStruct`1[[Unity.Networking.Transport.IPCNetworkInterface+SendUpdate, Unity.Networking.Transport, Version=0.0.0.0, Culture=neutral, PublicKeyToken=null]], UnityEngine.CoreModule, Version=0.0.0.0, Culture=neutral, PublicKeyToken=null::Execute(Unity.Networking.Transport.IPCNetworkInterface+SendUpdate&, Unity.Networking.Transport, Version=0.0.0.0, Culture=neutral, PublicKeyToken=null|System.IntPtr, mscorlib, Version=4.0.0.0, Culture=neutral, PublicKeyToken=b77a5c561934e089|System.IntPtr, mscorlib, Version=4.0.0.0, Culture=neutral, PublicKeyToken=b77a5c561934e089|Unity.Jobs.LowLevel.Unsafe.JobRanges&, UnityEngine.CoreModule, Version=0.0.0.0, Culture=neutral, PublicKeyToken=null|System.Int32, mscorlib, Version=4.0.0.0, Culture=neutral, PublicKeyToken=b77a5c561934e089)",
      "ModuleOptionsHash": 15221144590354301703,
      "ModuleHash": "03116e52226901777622fab96c5d8a15",
      "LinkName": "D2A8714E0A9BBE9C",
      "AssemblyDependencyIndices": [
        0,
        13,
        2,
        1,
        3,
        5,
        4,
        6
      ]
    },
    {
      "FullName": "Unity.Jobs.IJobExtensions+JobStruct`1[[Unity.Networking.Transport.IPCNetworkInterface+ReceiveJob, Unity.Networking.Transport, Version=0.0.0.0, Culture=neutral, PublicKeyToken=null]], UnityEngine.CoreModule, Version=0.0.0.0, Culture=neutral, PublicKeyToken=null::Execute(Unity.Networking.Transport.IPCNetworkInterface+ReceiveJob&, Unity.Networking.Transport, Version=0.0.0.0, Culture=neutral, PublicKeyToken=null|System.IntPtr, mscorlib, Version=4.0.0.0, Culture=neutral, PublicKeyToken=b77a5c561934e089|System.IntPtr, mscorlib, Version=4.0.0.0, Culture=neutral, PublicKeyToken=b77a5c561934e089|Unity.Jobs.LowLevel.Unsafe.JobRanges&, UnityEngine.CoreModule, Version=0.0.0.0, Culture=neutral, PublicKeyToken=null|System.Int32, mscorlib, Version=4.0.0.0, Culture=neutral, PublicKeyToken=b77a5c561934e089)",
      "ModuleOptionsHash": 15221144590354301703,
      "ModuleHash": "d61f278f3fc4c38d0370477b6c22229b",
      "LinkName": "603AB859797A13C2",
      "AssemblyDependencyIndices": [
        0,
        13,
        2,
        3,
        1,
        4,
        5,
        6,
        14
      ]
    },
    {
      "FullName": "Unity.Jobs.IJobExtensions+JobStruct`1[[Unity.Networking.Transport.NetworkDriver+UpdateJob, Unity.Networking.Transport, Version=0.0.0.0, Culture=neutral, PublicKeyToken=null]], UnityEngine.CoreModule, Version=0.0.0.0, Culture=neutral, PublicKeyToken=null::Execute(Unity.Networking.Transport.NetworkDriver+UpdateJob&, Unity.Networking.Transport, Version=0.0.0.0, Culture=neutral, PublicKeyToken=null|System.IntPtr, mscorlib, Version=4.0.0.0, Culture=neutral, PublicKeyToken=b77a5c561934e089|System.IntPtr, mscorlib, Version=4.0.0.0, Culture=neutral, PublicKeyToken=b77a5c561934e089|Unity.Jobs.LowLevel.Unsafe.JobRanges&, UnityEngine.CoreModule, Version=0.0.0.0, Culture=neutral, PublicKeyToken=null|System.Int32, mscorlib, Version=4.0.0.0, Culture=neutral, PublicKeyToken=b77a5c561934e089)",
      "ModuleOptionsHash": 15221144590354301703,
      "ModuleHash": "eed30a5c1391f270e86bdcb48462571f",
      "LinkName": "08B4350BD6936DAB",
      "AssemblyDependencyIndices": [
        0,
        13,
        2,
        3,
        1,
        4,
        5,
        6,
        14
      ]
    },
    {
      "FullName": "Unity.Jobs.IJobExtensions+JobStruct`1[[Unity.Networking.Transport.NetworkDriver+ClearEventQueue, Unity.Networking.Transport, Version=0.0.0.0, Culture=neutral, PublicKeyToken=null]], UnityEngine.CoreModule, Version=0.0.0.0, Culture=neutral, PublicKeyToken=null::Execute(Unity.Networking.Transport.NetworkDriver+ClearEventQueue&, Unity.Networking.Transport, Version=0.0.0.0, Culture=neutral, PublicKeyToken=null|System.IntPtr, mscorlib, Version=4.0.0.0, Culture=neutral, PublicKeyToken=b77a5c561934e089|System.IntPtr, mscorlib, Version=4.0.0.0, Culture=neutral, PublicKeyToken=b77a5c561934e089|Unity.Jobs.LowLevel.Unsafe.JobRanges&, UnityEngine.CoreModule, Version=0.0.0.0, Culture=neutral, PublicKeyToken=null|System.Int32, mscorlib, Version=4.0.0.0, Culture=neutral, PublicKeyToken=b77a5c561934e089)",
      "ModuleOptionsHash": 15221144590354301703,
      "ModuleHash": "15fd28ce3088b6a7cb2491142cc036e7",
      "LinkName": "7DF426609C1B9E52",
      "AssemblyDependencyIndices": [
        0,
        13,
        2,
        1,
        3,
        5,
        4,
        6
      ]
    },
    {
      "FullName": "Unity.Jobs.IJobParallelForExtensions+ParallelForJobStruct`1[[UnityEngine.U2D.Animation.BoneDeformBatchedJob, Unity.2D.Animation.Runtime, Version=0.0.0.0, Culture=neutral, PublicKeyToken=null]], UnityEngine.CoreModule, Version=0.0.0.0, Culture=neutral, PublicKeyToken=null::Execute(UnityEngine.U2D.Animation.BoneDeformBatchedJob&, Unity.2D.Animation.Runtime, Version=0.0.0.0, Culture=neutral, PublicKeyToken=null|System.IntPtr, mscorlib, Version=4.0.0.0, Culture=neutral, PublicKeyToken=b77a5c561934e089|System.IntPtr, mscorlib, Version=4.0.0.0, Culture=neutral, PublicKeyToken=b77a5c561934e089|Unity.Jobs.LowLevel.Unsafe.JobRanges&, UnityEngine.CoreModule, Version=0.0.0.0, Culture=neutral, PublicKeyToken=null|System.Int32, mscorlib, Version=4.0.0.0, Culture=neutral, PublicKeyToken=b77a5c561934e089)",
      "ModuleOptionsHash": 15221144590354301703,
      "ModuleHash": "4fca88e40d58434ee96bd4a38b137844",
      "LinkName": "CB8EA58100FBA76F",
      "AssemblyDependencyIndices": [
        0,
        10,
        2,
        1,
        4,
        3,
        5
      ]
    },
    {
      "FullName": "Unity.Jobs.IJobParallelForExtensions+ParallelForJobStruct`1[[UnityEngine.U2D.Animation.SkinDeformBatchedJob, Unity.2D.Animation.Runtime, Version=0.0.0.0, Culture=neutral, PublicKeyToken=null]], UnityEngine.CoreModule, Version=0.0.0.0, Culture=neutral, PublicKeyToken=null::Execute(UnityEngine.U2D.Animation.SkinDeformBatchedJob&, Unity.2D.Animation.Runtime, Version=0.0.0.0, Culture=neutral, PublicKeyToken=null|System.IntPtr, mscorlib, Version=4.0.0.0, Culture=neutral, PublicKeyToken=b77a5c561934e089|System.IntPtr, mscorlib, Version=4.0.0.0, Culture=neutral, PublicKeyToken=b77a5c561934e089|Unity.Jobs.LowLevel.Unsafe.JobRanges&, UnityEngine.CoreModule, Version=0.0.0.0, Culture=neutral, PublicKeyToken=null|System.Int32, mscorlib, Version=4.0.0.0, Culture=neutral, PublicKeyToken=b77a5c561934e089)",
      "ModuleOptionsHash": 15221144590354301703,
      "ModuleHash": "41b3881d5b7f9c7d693669376017a72d",
      "LinkName": "6FB51AFD1286439E",
      "AssemblyDependencyIndices": [
        0,
        10,
        2,
        4,
        3
      ]
    },
    {
      "FullName": "Unity.Jobs.IJobParallelForExtensions+ParallelForJobStruct`1[[UnityEngine.U2D.Animation.CalculateSpriteSkinAABBJob, Unity.2D.Animation.Runtime, Version=0.0.0.0, Culture=neutral, PublicKeyToken=null]], UnityEngine.CoreModule, Version=0.0.0.0, Culture=neutral, PublicKeyToken=null::Execute(UnityEngine.U2D.Animation.CalculateSpriteSkinAABBJob&, Unity.2D.Animation.Runtime, Version=0.0.0.0, Culture=neutral, PublicKeyToken=null|System.IntPtr, mscorlib, Version=4.0.0.0, Culture=neutral, PublicKeyToken=b77a5c561934e089|System.IntPtr, mscorlib, Version=4.0.0.0, Culture=neutral, PublicKeyToken=b77a5c561934e089|Unity.Jobs.LowLevel.Unsafe.JobRanges&, UnityEngine.CoreModule, Version=0.0.0.0, Culture=neutral, PublicKeyToken=null|System.Int32, mscorlib, Version=4.0.0.0, Culture=neutral, PublicKeyToken=b77a5c561934e089)",
      "ModuleOptionsHash": 15221144590354301703,
      "ModuleHash": "adf006e9b5da62bbce273a603651c16e",
      "LinkName": "103306C9ECB1440E",
      "AssemblyDependencyIndices": [
        0,
        10,
        2,
        3,
        4
      ]
    },
    {
      "FullName": "Unity.Jobs.IJobParallelForExtensions+ParallelForJobStruct`1[[UnityEngine.U2D.Animation.CopySpriteRendererBuffersJob, Unity.2D.Animation.Runtime, Version=0.0.0.0, Culture=neutral, PublicKeyToken=null]], UnityEngine.CoreModule, Version=0.0.0.0, Culture=neutral, PublicKeyToken=null::Execute(UnityEngine.U2D.Animation.CopySpriteRendererBuffersJob&, Unity.2D.Animation.Runtime, Version=0.0.0.0, Culture=neutral, PublicKeyToken=null|System.IntPtr, mscorlib, Version=4.0.0.0, Culture=neutral, PublicKeyToken=b77a5c561934e089|System.IntPtr, mscorlib, Version=4.0.0.0, Culture=neutral, PublicKeyToken=b77a5c561934e089|Unity.Jobs.LowLevel.Unsafe.JobRanges&, UnityEngine.CoreModule, Version=0.0.0.0, Culture=neutral, PublicKeyToken=null|System.Int32, mscorlib, Version=4.0.0.0, Culture=neutral, PublicKeyToken=b77a5c561934e089)",
      "ModuleOptionsHash": 15221144590354301703,
      "ModuleHash": "ce7a9a78d7d49c9ca3f9021072265e64",
      "LinkName": "0ABBF75E63FED3E4",
      "AssemblyDependencyIndices": [
        0,
        10,
        2,
        3
      ]
    },
    {
      "FullName": "UnityEngine.Jobs.IJobParallelForTransformExtensions+TransformParallelForLoopStruct`1[[UnityEngine.U2D.Animation.LocalToWorldTransformAccessJob, Unity.2D.Animation.Runtime, Version=0.0.0.0, Culture=neutral, PublicKeyToken=null]], UnityEngine.CoreModule, Version=0.0.0.0, Culture=neutral, PublicKeyToken=null::Execute(UnityEngine.U2D.Animation.LocalToWorldTransformAccessJob&, Unity.2D.Animation.Runtime, Version=0.0.0.0, Culture=neutral, PublicKeyToken=null|System.IntPtr, mscorlib, Version=4.0.0.0, Culture=neutral, PublicKeyToken=b77a5c561934e089|System.IntPtr, mscorlib, Version=4.0.0.0, Culture=neutral, PublicKeyToken=b77a5c561934e089|Unity.Jobs.LowLevel.Unsafe.JobRanges&, UnityEngine.CoreModule, Version=0.0.0.0, Culture=neutral, PublicKeyToken=null|System.Int32, mscorlib, Version=4.0.0.0, Culture=neutral, PublicKeyToken=b77a5c561934e089)",
      "ModuleOptionsHash": 15221144590354301703,
      "ModuleHash": "0839b08b4337046b0c72ab940f2617c2",
      "LinkName": "B30AC9D957A7897F",
      "AssemblyDependencyIndices": [
        0,
        10,
        2,
        4
      ]
    },
    {
      "FullName": "Unity.Jobs.IJobParallelForExtensions+ParallelForJobStruct`1[[UnityEngine.U2D.Animation.UpdateBoundJob, Unity.2D.Animation.Runtime, Version=0.0.0.0, Culture=neutral, PublicKeyToken=null]], UnityEngine.CoreModule, Version=0.0.0.0, Culture=neutral, PublicKeyToken=null::Execute(UnityEngine.U2D.Animation.UpdateBoundJob&, Unity.2D.Animation.Runtime, Version=0.0.0.0, Culture=neutral, PublicKeyToken=null|System.IntPtr, mscorlib, Version=4.0.0.0, Culture=neutral, PublicKeyToken=b77a5c561934e089|System.IntPtr, mscorlib, Version=4.0.0.0, Culture=neutral, PublicKeyToken=b77a5c561934e089|Unity.Jobs.LowLevel.Unsafe.JobRanges&, UnityEngine.CoreModule, Version=0.0.0.0, Culture=neutral, PublicKeyToken=null|System.Int32, mscorlib, Version=4.0.0.0, Culture=neutral, PublicKeyToken=b77a5c561934e089)",
      "ModuleOptionsHash": 15221144590354301703,
      "ModuleHash": "b511564cbf636fd343e8ce5fb13601ac",
      "LinkName": "6997F9FBBF830D74",
      "AssemblyDependencyIndices": [
        0,
        10,
        2,
        1,
        4,
        3,
        5
      ]
    },
    {
      "FullName": "UnityEngine.Jobs.IJobParallelForTransformExtensions+TransformParallelForLoopStruct`1[[UnityEngine.U2D.Animation.WorldToLocalTransformAccessJob, Unity.2D.Animation.Runtime, Version=0.0.0.0, Culture=neutral, PublicKeyToken=null]], UnityEngine.CoreModule, Version=0.0.0.0, Culture=neutral, PublicKeyToken=null::Execute(UnityEngine.U2D.Animation.WorldToLocalTransformAccessJob&, Unity.2D.Animation.Runtime, Version=0.0.0.0, Culture=neutral, PublicKeyToken=null|System.IntPtr, mscorlib, Version=4.0.0.0, Culture=neutral, PublicKeyToken=b77a5c561934e089|System.IntPtr, mscorlib, Version=4.0.0.0, Culture=neutral, PublicKeyToken=b77a5c561934e089|Unity.Jobs.LowLevel.Unsafe.JobRanges&, UnityEngine.CoreModule, Version=0.0.0.0, Culture=neutral, PublicKeyToken=null|System.Int32, mscorlib, Version=4.0.0.0, Culture=neutral, PublicKeyToken=b77a5c561934e089)",
      "ModuleOptionsHash": 15221144590354301703,
      "ModuleHash": "1694efccdb32dbd66d5291be863a17ea",
      "LinkName": "E7F55F6439D819D3",
      "AssemblyDependencyIndices": [
        0,
        10,
        2,
        4
      ]
    },
    {
      "FullName": "Unity.Netcode.Transports.UTP.NetworkMetricsPipelineStage, Unity.Netcode.Runtime, Version=0.0.0.0, Culture=neutral, PublicKeyToken=null::Receive(Unity.Networking.Transport.NetworkPipelineContext&, Unity.Networking.Transport, Version=0.0.0.0, Culture=neutral, PublicKeyToken=null|Unity.Networking.Transport.InboundRecvBuffer&, Unity.Networking.Transport, Version=0.0.0.0, Culture=neutral, PublicKeyToken=null|Unity.Networking.Transport.NetworkPipelineStage+Requests&, Unity.Networking.Transport, Version=0.0.0.0, Culture=neutral, PublicKeyToken=null|System.Int32, mscorlib, Version=4.0.0.0, Culture=neutral, PublicKeyToken=b77a5c561934e089)",
      "ModuleOptionsHash": 15221144590354301703,
      "ModuleHash": "14e337b6fd213044add1f66a19f80532",
      "LinkName": "EB3E5882FD834383",
      "AssemblyDependencyIndices": [
        12,
        3,
        2,
        13,
        0
      ]
    },
    {
      "FullName": "Unity.Netcode.Transports.UTP.NetworkMetricsPipelineStage, Unity.Netcode.Runtime, Version=0.0.0.0, Culture=neutral, PublicKeyToken=null::Send(Unity.Networking.Transport.NetworkPipelineContext&, Unity.Networking.Transport, Version=0.0.0.0, Culture=neutral, PublicKeyToken=null|Unity.Networking.Transport.InboundSendBuffer&, Unity.Networking.Transport, Version=0.0.0.0, Culture=neutral, PublicKeyToken=null|Unity.Networking.Transport.NetworkPipelineStage+Requests&, Unity.Networking.Transport, Version=0.0.0.0, Culture=neutral, PublicKeyToken=null|System.Int32, mscorlib, Version=4.0.0.0, Culture=neutral, PublicKeyToken=b77a5c561934e089)",
      "ModuleOptionsHash": 15221144590354301703,
      "ModuleHash": "2b7ec07c0523e85d7bf91613a0e27143",
      "LinkName": "9BA0F821408F4C9F",
      "AssemblyDependencyIndices": [
        12,
        3,
        2,
        13,
        0
      ]
    },
    {
      "FullName": "Unity.Netcode.Transports.UTP.NetworkMetricsPipelineStage, Unity.Netcode.Runtime, Version=0.0.0.0, Culture=neutral, PublicKeyToken=null::InitializeConnection(System.Byte*, mscorlib, Version=4.0.0.0, Culture=neutral, PublicKeyToken=b77a5c561934e089|System.Int32, mscorlib, Version=4.0.0.0, Culture=neutral, PublicKeyToken=b77a5c561934e089|System.Byte*, mscorlib, Version=4.0.0.0, Culture=neutral, PublicKeyToken=b77a5c561934e089|System.Int32, mscorlib, Version=4.0.0.0, Culture=neutral, PublicKeyToken=b77a5c561934e089|System.Byte*, mscorlib, Version=4.0.0.0, Culture=neutral, PublicKeyToken=b77a5c561934e089|System.Int32, mscorlib, Version=4.0.0.0, Culture=neutral, PublicKeyToken=b77a5c561934e089|System.Byte*, mscorlib, Version=4.0.0.0, Culture=neutral, PublicKeyToken=b77a5c561934e089|System.Int32, mscorlib, Version=4.0.0.0, Culture=neutral, PublicKeyToken=b77a5c561934e089)",
      "ModuleOptionsHash": 15221144590354301703,
      "ModuleHash": "affb0cdea59f85c59283f904538a6230",
      "LinkName": "7892315BD5CF5245",
      "AssemblyDependencyIndices": [
        12,
        3,
        2
      ]
    },
    {
      "FullName": "UnityEditor.U2D.Animation.TriangulationUtility, Unity.2D.Animation.Editor, Version=0.0.0.0, Culture=neutral, PublicKeyToken=null::ValidateCollinear(Unity.Mathematics.float2*, Unity.Mathematics, Version=1.0.0.0, Culture=neutral, PublicKeyToken=null|System.Int32, mscorlib, Version=4.0.0.0, Culture=neutral, PublicKeyToken=b77a5c561934e089|System.Single, mscorlib, Version=4.0.0.0, Culture=neutral, PublicKeyToken=b77a5c561934e089)",
      "ModuleOptionsHash": 15221144590354301703,
      "ModuleHash": "0835fab972ca263a5ccc079aa0544f22",
      "LinkName": "7F9BDFAB3718C423",
      "AssemblyDependencyIndices": [
        16,
        2,
        4,
        5,
        3,
        0,
        15
      ]
    },
    {
      "FullName": "Unity.Collections.RewindableAllocator, Unity.Collections, Version=0.0.0.0, Culture=neutral, PublicKeyToken=null::Try(System.IntPtr, mscorlib, Version=4.0.0.0, Culture=neutral, PublicKeyToken=b77a5c561934e089|Unity.Collections.AllocatorManager+Block&, Unity.Collections, Version=0.0.0.0, Culture=neutral, PublicKeyToken=null)",
      "ModuleOptionsHash": 15221144590354301703,
      "ModuleHash": "98b428eae135516da9ca331846e2a266",
      "LinkName": "806B2D5E79A7443E",
      "AssemblyDependencyIndices": [
        1,
        3,
        2,
        5,
        4,
        0,
        15,
        6
      ]
    },
    {
      "FullName": "Unity.Collections.xxHash3, Unity.Collections, Version=0.0.0.0, Culture=neutral, PublicKeyToken=null::Hash64Long(System.Byte*, mscorlib, Version=4.0.0.0, Culture=neutral, PublicKeyToken=b77a5c561934e089|System.Byte*, mscorlib, Version=4.0.0.0, Culture=neutral, PublicKeyToken=b77a5c561934e089|System.Int64, mscorlib, Version=4.0.0.0, Culture=neutral, PublicKeyToken=b77a5c561934e089|System.Byte*, mscorlib, Version=4.0.0.0, Culture=neutral, PublicKeyToken=b77a5c561934e089)",
      "ModuleOptionsHash": 15221144590354301703,
      "ModuleHash": "4ea4fb76b94944e2c4d8be2af2877ee5",
      "LinkName": "073EC3FA933E2E4B",
      "AssemblyDependencyIndices": [
        1,
        3,
        2,
        5,
        0,
        15
      ]
    },
    {
      "FullName": "UnityEditor.U2D.Animation.TriangulationUtility, Unity.2D.Animation.Editor, Version=0.0.0.0, Culture=neutral, PublicKeyToken=null::TessellateBurst(Unity.Collections.Allocator, UnityEngine.CoreModule, Version=0.0.0.0, Culture=neutral, PublicKeyToken=null|Unity.Mathematics.float2*, Unity.Mathematics, Version=1.0.0.0, Culture=neutral, PublicKeyToken=null|System.Int32, mscorlib, Version=4.0.0.0, Culture=neutral, PublicKeyToken=b77a5c561934e089|Unity.Mathematics.int2*, Unity.Mathematics, Version=1.0.0.0, Culture=neutral, PublicKeyToken=null|System.Int32, mscorlib, Version=4.0.0.0, Culture=neutral, PublicKeyToken=b77a5c561934e089|Unity.Mathematics.float2*, Unity.Mathematics, Version=1.0.0.0, Culture=neutral, PublicKeyToken=null|System.Int32*, mscorlib, Version=4.0.0.0, Culture=neutral, PublicKeyToken=b77a5c561934e089|Unity.Mathematics.int2*, Unity.Mathematics, Version=1.0.0.0, Culture=neutral, PublicKeyToken=null|System.Int32, mscorlib, Version=4.0.0.0, Culture=neutral, PublicKeyToken=b77a5c561934e089|Unity.Mathematics.int3*, Unity.Mathematics, Version=1.0.0.0, Culture=neutral, PublicKeyToken=null)",
      "ModuleOptionsHash": 15221144590354301703,
      "ModuleHash": "e2434e199a0296e74386fc54d61a547d",
      "LinkName": "7D2E04AB7759F565",
      "AssemblyDependencyIndices": [
        16,
        2,
        0,
        4,
        3,
        5,
        9,
        15
      ]
    },
    {
      "FullName": "Unity.Networking.Transport.BaselibNetworkInterface, Unity.Networking.Transport, Version=0.0.0.0, Culture=neutral, PublicKeyToken=null::BeginSendMessage(Unity.Networking.Transport.NetworkInterfaceSendHandle&, Unity.Networking.Transport, Version=0.0.0.0, Culture=neutral, PublicKeyToken=null|System.IntPtr, mscorlib, Version=4.0.0.0, Culture=neutral, PublicKeyToken=b77a5c561934e089|System.Int32, mscorlib, Version=4.0.0.0, Culture=neutral, PublicKeyToken=b77a5c561934e089)",
      "ModuleOptionsHash": 15221144590354301703,
      "ModuleHash": "0d13c6fc47ebc1aea81b004f33f7daa0",
      "LinkName": "857A0715333D2D03",
      "AssemblyDependencyIndices": [
        13,
        3,
        2,
        0,
        1
      ]
    },
    {
      "FullName": "Unity.Collections.xxHash3, Unity.Collections, Version=0.0.0.0, Culture=neutral, PublicKeyToken=null::Hash128Long(System.Byte*, mscorlib, Version=4.0.0.0, Culture=neutral, PublicKeyToken=b77a5c561934e089|System.Byte*, mscorlib, Version=4.0.0.0, Culture=neutral, PublicKeyToken=b77a5c561934e089|System.Int64, mscorlib, Version=4.0.0.0, Culture=neutral, PublicKeyToken=b77a5c561934e089|System.Byte*, mscorlib, Version=4.0.0.0, Culture=neutral, PublicKeyToken=b77a5c561934e089|Unity.Mathematics.uint4&, Unity.Mathematics, Version=1.0.0.0, Culture=neutral, PublicKeyToken=null)",
      "ModuleOptionsHash": 15221144590354301703,
      "ModuleHash": "51f0c096ea71b486f2432ecbc2840960",
      "LinkName": "64D279804013162E",
      "AssemblyDependencyIndices": [
        1,
        3,
        2,
        4,
        5,
        0,
        15
      ]
    },
    {
      "FullName": "UnityEditor.U2D.Animation.TriangulationUtility, Unity.2D.Animation.Editor, Version=0.0.0.0, Culture=neutral, PublicKeyToken=null::SubdivideBurst(Unity.Collections.Allocator, UnityEngine.CoreModule, Version=0.0.0.0, Culture=neutral, PublicKeyToken=null|Unity.Mathematics.float2*, Unity.Mathematics, Version=1.0.0.0, Culture=neutral, PublicKeyToken=null|System.Int32, mscorlib, Version=4.0.0.0, Culture=neutral, PublicKeyToken=b77a5c561934e089|Unity.Mathematics.int2*, Unity.Mathematics, Version=1.0.0.0, Culture=neutral, PublicKeyToken=null|System.Int32, mscorlib, Version=4.0.0.0, Culture=neutral, PublicKeyToken=b77a5c561934e089|Unity.Mathematics.float2*, Unity.Mathematics, Version=1.0.0.0, Culture=neutral, PublicKeyToken=null|System.Int32*, mscorlib, Version=4.0.0.0, Culture=neutral, PublicKeyToken=b77a5c561934e089|Unity.Mathematics.int2*, Unity.Mathematics, Version=1.0.0.0, Culture=neutral, PublicKeyToken=null|System.Int32, mscorlib, Version=4.0.0.0, Culture=neutral, PublicKeyToken=b77a5c561934e089|System.Single, mscorlib, Version=4.0.0.0, Culture=neutral, PublicKeyToken=b77a5c561934e089|System.Single, mscorlib, Version=4.0.0.0, Culture=neutral, PublicKeyToken=b77a5c561934e089|System.Int32, mscorlib, Version=4.0.0.0, Culture=neutral, PublicKeyToken=b77a5c561934e089|System.Int32, mscorlib, Version=4.0.0.0, Culture=neutral, PublicKeyToken=b77a5c561934e089|Unity.Mathematics.int3*, Unity.Mathematics, Version=1.0.0.0, Culture=neutral, PublicKeyToken=null)",
      "ModuleOptionsHash": 15221144590354301703,
      "ModuleHash": "5dcf0fe9046f82e4b9d9fb5cacd5b2d8",
      "LinkName": "4E9252389FAD9FEE",
      "AssemblyDependencyIndices": [
        16,
        2,
        0,
        4,
        5,
        3,
        9,
        15
      ]
    },
    {
      "FullName": "Unity.Networking.Transport.BaselibNetworkInterface, Unity.Networking.Transport, Version=0.0.0.0, Culture=neutral, PublicKeyToken=null::EndSendMessage(Unity.Networking.Transport.NetworkInterfaceSendHandle&, Unity.Networking.Transport, Version=0.0.0.0, Culture=neutral, PublicKeyToken=null|Unity.Networking.Transport.NetworkInterfaceEndPoint&, Unity.Networking.Transport, Version=0.0.0.0, Culture=neutral, PublicKeyToken=null|System.IntPtr, mscorlib, Version=4.0.0.0, Culture=neutral, PublicKeyToken=b77a5c561934e089|Unity.Networking.Transport.NetworkSendQueueHandle&, Unity.Networking.Transport, Version=0.0.0.0, Culture=neutral, PublicKeyToken=null)",
      "ModuleOptionsHash": 15221144590354301703,
      "ModuleHash": "c82c79a1c3e7efc43c0354bc7a65ad9d",
      "LinkName": "B1BD8B7E90993FBC",
      "AssemblyDependencyIndices": [
        13,
        3,
        2,
        0,
        1
      ]
    },
    {
      "FullName": "Unity.Networking.Transport.BaselibNetworkInterface, Unity.Networking.Transport, Version=0.0.0.0, Culture=neutral, PublicKeyToken=null::AbortSendMessage(Unity.Networking.Transport.NetworkInterfaceSendHandle&, Unity.Networking.Transport, Version=0.0.0.0, Culture=neutral, PublicKeyToken=null|System.IntPtr, mscorlib, Version=4.0.0.0, Culture=neutral, PublicKeyToken=b77a5c561934e089)",
      "ModuleOptionsHash": 15221144590354301703,
      "ModuleHash": "3b46ead9c06ae10904578fc003968e2f",
      "LinkName": "405511192E903FA8",
      "AssemblyDependencyIndices": [
        13,
        3,
        2,
        0,
        1
      ]
    },
    {
      "FullName": "Unity.Networking.Transport.IPCNetworkInterface, Unity.Networking.Transport, Version=0.0.0.0, Culture=neutral, PublicKeyToken=null::BeginSendMessage(Unity.Networking.Transport.NetworkInterfaceSendHandle&, Unity.Networking.Transport, Version=0.0.0.0, Culture=neutral, PublicKeyToken=null|System.IntPtr, mscorlib, Version=4.0.0.0, Culture=neutral, PublicKeyToken=b77a5c561934e089|System.Int32, mscorlib, Version=4.0.0.0, Culture=neutral, PublicKeyToken=b77a5c561934e089)",
      "ModuleOptionsHash": 15221144590354301703,
      "ModuleHash": "36ef8e214bd2a55563e91e66662321df",
      "LinkName": "E373B405F1A7D9BA",
      "AssemblyDependencyIndices": [
        13,
        3,
        2,
        0
      ]
    },
    {
      "FullName": "Unity.Networking.Transport.IPCNetworkInterface, Unity.Networking.Transport, Version=0.0.0.0, Culture=neutral, PublicKeyToken=null::AbortSendMessage(Unity.Networking.Transport.NetworkInterfaceSendHandle&, Unity.Networking.Transport, Version=0.0.0.0, Culture=neutral, PublicKeyToken=null|System.IntPtr, mscorlib, Version=4.0.0.0, Culture=neutral, PublicKeyToken=b77a5c561934e089)",
      "ModuleOptionsHash": 15221144590354301703,
      "ModuleHash": "06f430430353bfeb0f8cb4b3a90b7053",
      "LinkName": "B5C64C36D49D8972",
      "AssemblyDependencyIndices": [
        13,
        3,
        2
      ]
    },
    {
      "FullName": "Unity.Networking.Transport.IPCNetworkInterface, Unity.Networking.Transport, Version=0.0.0.0, Culture=neutral, PublicKeyToken=null::EndSendMessage(Unity.Networking.Transport.NetworkInterfaceSendHandle&, Unity.Networking.Transport, Version=0.0.0.0, Culture=neutral, PublicKeyToken=null|Unity.Networking.Transport.NetworkInterfaceEndPoint&, Unity.Networking.Transport, Version=0.0.0.0, Culture=neutral, PublicKeyToken=null|System.IntPtr, mscorlib, Version=4.0.0.0, Culture=neutral, PublicKeyToken=b77a5c561934e089|Unity.Networking.Transport.NetworkSendQueueHandle&, Unity.Networking.Transport, Version=0.0.0.0, Culture=neutral, PublicKeyToken=null)",
      "ModuleOptionsHash": 15221144590354301703,
      "ModuleHash": "b30bf7272b2fed85025cf851e4942966",
      "LinkName": "206E77D8FBC75F1F",
      "AssemblyDependencyIndices": [
        13,
        3,
        2,
        0,
        1,
        5,
        4,
        6
      ]
    },
    {
      "FullName": "Unity.Networking.Transport.FragmentationPipelineStage, Unity.Networking.Transport, Version=0.0.0.0, Culture=neutral, PublicKeyToken=null::Send(Unity.Networking.Transport.NetworkPipelineContext&, Unity.Networking.Transport, Version=0.0.0.0, Culture=neutral, PublicKeyToken=null|Unity.Networking.Transport.InboundSendBuffer&, Unity.Networking.Transport, Version=0.0.0.0, Culture=neutral, PublicKeyToken=null|Unity.Networking.Transport.NetworkPipelineStage+Requests&, Unity.Networking.Transport, Version=0.0.0.0, Culture=neutral, PublicKeyToken=null|System.Int32, mscorlib, Version=4.0.0.0, Culture=neutral, PublicKeyToken=b77a5c561934e089)",
      "ModuleOptionsHash": 15221144590354301703,
      "ModuleHash": "7b142a3daffa7d753629a87b344fa302",
      "LinkName": "84F861855A196DE7",
      "AssemblyDependencyIndices": [
        13,
        3,
        2,
        0
      ]
    },
    {
      "FullName": "Unity.Networking.Transport.FragmentationPipelineStage, Unity.Networking.Transport, Version=0.0.0.0, Culture=neutral, PublicKeyToken=null::Receive(Unity.Networking.Transport.NetworkPipelineContext&, Unity.Networking.Transport, Version=0.0.0.0, Culture=neutral, PublicKeyToken=null|Unity.Networking.Transport.InboundRecvBuffer&, Unity.Networking.Transport, Version=0.0.0.0, Culture=neutral, PublicKeyToken=null|Unity.Networking.Transport.NetworkPipelineStage+Requests&, Unity.Networking.Transport, Version=0.0.0.0, Culture=neutral, PublicKeyToken=null|System.Int32, mscorlib, Version=4.0.0.0, Culture=neutral, PublicKeyToken=b77a5c561934e089)",
      "ModuleOptionsHash": 15221144590354301703,
      "ModuleHash": "f2e05b58f4f4209aa1dd56ba4fef1efa",
      "LinkName": "9C5FC2D799874046",
      "AssemblyDependencyIndices": [
        13,
        3,
        2,
        0
      ]
    },
    {
      "FullName": "Unity.Networking.Transport.FragmentationPipelineStage, Unity.Networking.Transport, Version=0.0.0.0, Culture=neutral, PublicKeyToken=null::InitializeConnection(System.Byte*, mscorlib, Version=4.0.0.0, Culture=neutral, PublicKeyToken=b77a5c561934e089|System.Int32, mscorlib, Version=4.0.0.0, Culture=neutral, PublicKeyToken=b77a5c561934e089|System.Byte*, mscorlib, Version=4.0.0.0, Culture=neutral, PublicKeyToken=b77a5c561934e089|System.Int32, mscorlib, Version=4.0.0.0, Culture=neutral, PublicKeyToken=b77a5c561934e089|System.Byte*, mscorlib, Version=4.0.0.0, Culture=neutral, PublicKeyToken=b77a5c561934e089|System.Int32, mscorlib, Version=4.0.0.0, Culture=neutral, PublicKeyToken=b77a5c561934e089|System.Byte*, mscorlib, Version=4.0.0.0, Culture=neutral, PublicKeyToken=b77a5c561934e089|System.Int32, mscorlib, Version=4.0.0.0, Culture=neutral, PublicKeyToken=b77a5c561934e089)",
      "ModuleOptionsHash": 15221144590354301703,
      "ModuleHash": "ca2c046445ceddd91b83065b3d2bc4c5",
      "LinkName": "596242BF8AF89112",
      "AssemblyDependencyIndices": [
        13,
        3,
        2
      ]
    },
    {
      "FullName": "Unity.Networking.Transport.NullPipelineStage, Unity.Networking.Transport, Version=0.0.0.0, Culture=neutral, PublicKeyToken=null::Send(Unity.Networking.Transport.NetworkPipelineContext&, Unity.Networking.Transport, Version=0.0.0.0, Culture=neutral, PublicKeyToken=null|Unity.Networking.Transport.InboundSendBuffer&, Unity.Networking.Transport, Version=0.0.0.0, Culture=neutral, PublicKeyToken=null|Unity.Networking.Transport.NetworkPipelineStage+Requests&, Unity.Networking.Transport, Version=0.0.0.0, Culture=neutral, PublicKeyToken=null|System.Int32, mscorlib, Version=4.0.0.0, Culture=neutral, PublicKeyToken=b77a5c561934e089)",
      "ModuleOptionsHash": 15221144590354301703,
      "ModuleHash": "76d6e0df2c2371890dc580ce63b5481a",
      "LinkName": "84A21133F3CF57F0",
      "AssemblyDependencyIndices": [
        13,
        3,
        2,
        0
      ]
    },
    {
      "FullName": "Unity.Networking.Transport.NullPipelineStage, Unity.Networking.Transport, Version=0.0.0.0, Culture=neutral, PublicKeyToken=null::Receive(Unity.Networking.Transport.NetworkPipelineContext&, Unity.Networking.Transport, Version=0.0.0.0, Culture=neutral, PublicKeyToken=null|Unity.Networking.Transport.InboundRecvBuffer&, Unity.Networking.Transport, Version=0.0.0.0, Culture=neutral, PublicKeyToken=null|Unity.Networking.Transport.NetworkPipelineStage+Requests&, Unity.Networking.Transport, Version=0.0.0.0, Culture=neutral, PublicKeyToken=null|System.Int32, mscorlib, Version=4.0.0.0, Culture=neutral, PublicKeyToken=b77a5c561934e089)",
      "ModuleOptionsHash": 15221144590354301703,
      "ModuleHash": "876500a35423835d695ff49ff570c7b6",
      "LinkName": "8B17BD77EE90BA4D",
      "AssemblyDependencyIndices": [
        13,
        3,
        2,
        0
      ]
    },
    {
      "FullName": "Unity.Networking.Transport.ReliableSequencedPipelineStage, Unity.Networking.Transport, Version=0.0.0.0, Culture=neutral, PublicKeyToken=null::Send(Unity.Networking.Transport.NetworkPipelineContext&, Unity.Networking.Transport, Version=0.0.0.0, Culture=neutral, PublicKeyToken=null|Unity.Networking.Transport.InboundSendBuffer&, Unity.Networking.Transport, Version=0.0.0.0, Culture=neutral, PublicKeyToken=null|Unity.Networking.Transport.NetworkPipelineStage+Requests&, Unity.Networking.Transport, Version=0.0.0.0, Culture=neutral, PublicKeyToken=null|System.Int32, mscorlib, Version=4.0.0.0, Culture=neutral, PublicKeyToken=b77a5c561934e089)",
      "ModuleOptionsHash": 15221144590354301703,
      "ModuleHash": "8b7044282bea85509114428215e367ae",
      "LinkName": "5A81E96A787BD6C8",
      "AssemblyDependencyIndices": [
        13,
        3,
        2,
        0
      ]
    },
    {
      "FullName": "Unity.Networking.Transport.NullPipelineStage, Unity.Networking.Transport, Version=0.0.0.0, Culture=neutral, PublicKeyToken=null::InitializeConnection(System.Byte*, mscorlib, Version=4.0.0.0, Culture=neutral, PublicKeyToken=b77a5c561934e089|System.Int32, mscorlib, Version=4.0.0.0, Culture=neutral, PublicKeyToken=b77a5c561934e089|System.Byte*, mscorlib, Version=4.0.0.0, Culture=neutral, PublicKeyToken=b77a5c561934e089|System.Int32, mscorlib, Version=4.0.0.0, Culture=neutral, PublicKeyToken=b77a5c561934e089|System.Byte*, mscorlib, Version=4.0.0.0, Culture=neutral, PublicKeyToken=b77a5c561934e089|System.Int32, mscorlib, Version=4.0.0.0, Culture=neutral, PublicKeyToken=b77a5c561934e089|System.Byte*, mscorlib, Version=4.0.0.0, Culture=neutral, PublicKeyToken=b77a5c561934e089|System.Int32, mscorlib, Version=4.0.0.0, Culture=neutral, PublicKeyToken=b77a5c561934e089)",
      "ModuleOptionsHash": 15221144590354301703,
      "ModuleHash": "e0e4172bbda672d57b65b6fac3c40a50",
      "LinkName": "AB6431E798DCDD09",
      "AssemblyDependencyIndices": [
        13,
        3,
        2
      ]
    },
    {
      "FullName": "Unity.Networking.Transport.ReliableSequencedPipelineStage, Unity.Networking.Transport, Version=0.0.0.0, Culture=neutral, PublicKeyToken=null::Receive(Unity.Networking.Transport.NetworkPipelineContext&, Unity.Networking.Transport, Version=0.0.0.0, Culture=neutral, PublicKeyToken=null|Unity.Networking.Transport.InboundRecvBuffer&, Unity.Networking.Transport, Version=0.0.0.0, Culture=neutral, PublicKeyToken=null|Unity.Networking.Transport.NetworkPipelineStage+Requests&, Unity.Networking.Transport, Version=0.0.0.0, Culture=neutral, PublicKeyToken=null|System.Int32, mscorlib, Version=4.0.0.0, Culture=neutral, PublicKeyToken=b77a5c561934e089)",
      "ModuleOptionsHash": 15221144590354301703,
      "ModuleHash": "da9dce4faf7a4b4c17ad6283de38e424",
      "LinkName": "1DC98CF1A1A9242B",
      "AssemblyDependencyIndices": [
        13,
        3,
        2,
        0,
        4
      ]
    },
    {
      "FullName": "Unity.Networking.Transport.ReliableSequencedPipelineStage, Unity.Networking.Transport, Version=0.0.0.0, Culture=neutral, PublicKeyToken=null::InitializeConnection(System.Byte*, mscorlib, Version=4.0.0.0, Culture=neutral, PublicKeyToken=b77a5c561934e089|System.Int32, mscorlib, Version=4.0.0.0, Culture=neutral, PublicKeyToken=b77a5c561934e089|System.Byte*, mscorlib, Version=4.0.0.0, Culture=neutral, PublicKeyToken=b77a5c561934e089|System.Int32, mscorlib, Version=4.0.0.0, Culture=neutral, PublicKeyToken=b77a5c561934e089|System.Byte*, mscorlib, Version=4.0.0.0, Culture=neutral, PublicKeyToken=b77a5c561934e089|System.Int32, mscorlib, Version=4.0.0.0, Culture=neutral, PublicKeyToken=b77a5c561934e089|System.Byte*, mscorlib, Version=4.0.0.0, Culture=neutral, PublicKeyToken=b77a5c561934e089|System.Int32, mscorlib, Version=4.0.0.0, Culture=neutral, PublicKeyToken=b77a5c561934e089)",
      "ModuleOptionsHash": 15221144590354301703,
      "ModuleHash": "57d058b1760de93bf8da7f82625a8ac5",
      "LinkName": "2F483606ED7F5C8A",
      "AssemblyDependencyIndices": [
        13,
        3,
        2,
        0
      ]
    },
    {
      "FullName": "Unity.Networking.Transport.SimulatorPipelineStage, Unity.Networking.Transport, Version=0.0.0.0, Culture=neutral, PublicKeyToken=null::InitializeConnection(System.Byte*, mscorlib, Version=4.0.0.0, Culture=neutral, PublicKeyToken=b77a5c561934e089|System.Int32, mscorlib, Version=4.0.0.0, Culture=neutral, PublicKeyToken=b77a5c561934e089|System.Byte*, mscorlib, Version=4.0.0.0, Culture=neutral, PublicKeyToken=b77a5c561934e089|System.Int32, mscorlib, Version=4.0.0.0, Culture=neutral, PublicKeyToken=b77a5c561934e089|System.Byte*, mscorlib, Version=4.0.0.0, Culture=neutral, PublicKeyToken=b77a5c561934e089|System.Int32, mscorlib, Version=4.0.0.0, Culture=neutral, PublicKeyToken=b77a5c561934e089|System.Byte*, mscorlib, Version=4.0.0.0, Culture=neutral, PublicKeyToken=b77a5c561934e089|System.Int32, mscorlib, Version=4.0.0.0, Culture=neutral, PublicKeyToken=b77a5c561934e089)",
      "ModuleOptionsHash": 15221144590354301703,
      "ModuleHash": "b2023b6edc70f6c13d640d9bfa65eebe",
      "LinkName": "834661DA2978B91C",
      "AssemblyDependencyIndices": [
        13,
        3,
        2,
        0,
        4
      ]
    },
    {
      "FullName": "Unity.Networking.Transport.SimulatorPipelineStage, Unity.Networking.Transport, Version=0.0.0.0, Culture=neutral, PublicKeyToken=null::Send(Unity.Networking.Transport.NetworkPipelineContext&, Unity.Networking.Transport, Version=0.0.0.0, Culture=neutral, PublicKeyToken=null|Unity.Networking.Transport.InboundSendBuffer&, Unity.Networking.Transport, Version=0.0.0.0, Culture=neutral, PublicKeyToken=null|Unity.Networking.Transport.NetworkPipelineStage+Requests&, Unity.Networking.Transport, Version=0.0.0.0, Culture=neutral, PublicKeyToken=null|System.Int32, mscorlib, Version=4.0.0.0, Culture=neutral, PublicKeyToken=b77a5c561934e089)",
      "ModuleOptionsHash": 15221144590354301703,
      "ModuleHash": "5b3e05da95af0afe350506c4cf2464f3",
      "LinkName": "165F68DC85B6E7BF",
      "AssemblyDependencyIndices": [
        13,
        3,
        2,
        0
      ]
    },
    {
      "FullName": "Unity.Networking.Transport.SimulatorPipelineStage, Unity.Networking.Transport, Version=0.0.0.0, Culture=neutral, PublicKeyToken=null::Receive(Unity.Networking.Transport.NetworkPipelineContext&, Unity.Networking.Transport, Version=0.0.0.0, Culture=neutral, PublicKeyToken=null|Unity.Networking.Transport.InboundRecvBuffer&, Unity.Networking.Transport, Version=0.0.0.0, Culture=neutral, PublicKeyToken=null|Unity.Networking.Transport.NetworkPipelineStage+Requests&, Unity.Networking.Transport, Version=0.0.0.0, Culture=neutral, PublicKeyToken=null|System.Int32, mscorlib, Version=4.0.0.0, Culture=neutral, PublicKeyToken=b77a5c561934e089)",
      "ModuleOptionsHash": 15221144590354301703,
      "ModuleHash": "1e40bec8eb78c67802043819f61565da",
      "LinkName": "8FBDC7A810335300",
      "AssemblyDependencyIndices": [
        13,
        3,
        2,
        4,
        0
      ]
    },
    {
      "FullName": "Unity.Networking.Transport.SimulatorPipelineStageInSend, Unity.Networking.Transport, Version=0.0.0.0, Culture=neutral, PublicKeyToken=null::InitializeConnection(System.Byte*, mscorlib, Version=4.0.0.0, Culture=neutral, PublicKeyToken=b77a5c561934e089|System.Int32, mscorlib, Version=4.0.0.0, Culture=neutral, PublicKeyToken=b77a5c561934e089|System.Byte*, mscorlib, Version=4.0.0.0, Culture=neutral, PublicKeyToken=b77a5c561934e089|System.Int32, mscorlib, Version=4.0.0.0, Culture=neutral, PublicKeyToken=b77a5c561934e089|System.Byte*, mscorlib, Version=4.0.0.0, Culture=neutral, PublicKeyToken=b77a5c561934e089|System.Int32, mscorlib, Version=4.0.0.0, Culture=neutral, PublicKeyToken=b77a5c561934e089|System.Byte*, mscorlib, Version=4.0.0.0, Culture=neutral, PublicKeyToken=b77a5c561934e089|System.Int32, mscorlib, Version=4.0.0.0, Culture=neutral, PublicKeyToken=b77a5c561934e089)",
      "ModuleOptionsHash": 15221144590354301703,
      "ModuleHash": "f0d5fa52315b2e89de8520bf10b9c972",
      "LinkName": "F4BD41705BF46512",
      "AssemblyDependencyIndices": [
        13,
        3,
        2,
        0,
        4
      ]
    },
    {
      "FullName": "Unity.Networking.Transport.SimulatorPipelineStageInSend, Unity.Networking.Transport, Version=0.0.0.0, Culture=neutral, PublicKeyToken=null::Send(Unity.Networking.Transport.NetworkPipelineContext&, Unity.Networking.Transport, Version=0.0.0.0, Culture=neutral, PublicKeyToken=null|Unity.Networking.Transport.InboundSendBuffer&, Unity.Networking.Transport, Version=0.0.0.0, Culture=neutral, PublicKeyToken=null|Unity.Networking.Transport.NetworkPipelineStage+Requests&, Unity.Networking.Transport, Version=0.0.0.0, Culture=neutral, PublicKeyToken=null|System.Int32, mscorlib, Version=4.0.0.0, Culture=neutral, PublicKeyToken=b77a5c561934e089)",
      "ModuleOptionsHash": 15221144590354301703,
      "ModuleHash": "cd6444c465f0daada6889a81d7e6fe29",
      "LinkName": "509B6464D32C1B2D",
      "AssemblyDependencyIndices": [
        13,
        3,
        2,
        4,
        0
      ]
    },
    {
      "FullName": "Unity.Networking.Transport.SimulatorPipelineStageInSend, Unity.Networking.Transport, Version=0.0.0.0, Culture=neutral, PublicKeyToken=null::Receive(Unity.Networking.Transport.NetworkPipelineContext&, Unity.Networking.Transport, Version=0.0.0.0, Culture=neutral, PublicKeyToken=null|Unity.Networking.Transport.InboundRecvBuffer&, Unity.Networking.Transport, Version=0.0.0.0, Culture=neutral, PublicKeyToken=null|Unity.Networking.Transport.NetworkPipelineStage+Requests&, Unity.Networking.Transport, Version=0.0.0.0, Culture=neutral, PublicKeyToken=null|System.Int32, mscorlib, Version=4.0.0.0, Culture=neutral, PublicKeyToken=b77a5c561934e089)",
      "ModuleOptionsHash": 15221144590354301703,
      "ModuleHash": "d8ff7f60568aee051fd7d50cd4930180",
      "LinkName": "B6C3CDB6974A03E3",
      "AssemblyDependencyIndices": [
        13,
        3,
        2,
        0
      ]
    },
    {
      "FullName": "Unity.Networking.Transport.UnreliableSequencedPipelineStage, Unity.Networking.Transport, Version=0.0.0.0, Culture=neutral, PublicKeyToken=null::Receive(Unity.Networking.Transport.NetworkPipelineContext&, Unity.Networking.Transport, Version=0.0.0.0, Culture=neutral, PublicKeyToken=null|Unity.Networking.Transport.InboundRecvBuffer&, Unity.Networking.Transport, Version=0.0.0.0, Culture=neutral, PublicKeyToken=null|Unity.Networking.Transport.NetworkPipelineStage+Requests&, Unity.Networking.Transport, Version=0.0.0.0, Culture=neutral, PublicKeyToken=null|System.Int32, mscorlib, Version=4.0.0.0, Culture=neutral, PublicKeyToken=b77a5c561934e089)",
      "ModuleOptionsHash": 15221144590354301703,
      "ModuleHash": "f413d7ae0068edd8d69f7cac0c5a884f",
      "LinkName": "342C1D0D8A6A6576",
      "AssemblyDependencyIndices": [
        13,
        3,
        2,
        0
      ]
    },
    {
      "FullName": "Unity.Networking.Transport.UnreliableSequencedPipelineStage, Unity.Networking.Transport, Version=0.0.0.0, Culture=neutral, PublicKeyToken=null::Send(Unity.Networking.Transport.NetworkPipelineContext&, Unity.Networking.Transport, Version=0.0.0.0, Culture=neutral, PublicKeyToken=null|Unity.Networking.Transport.InboundSendBuffer&, Unity.Networking.Transport, Version=0.0.0.0, Culture=neutral, PublicKeyToken=null|Unity.Networking.Transport.NetworkPipelineStage+Requests&, Unity.Networking.Transport, Version=0.0.0.0, Culture=neutral, PublicKeyToken=null|System.Int32, mscorlib, Version=4.0.0.0, Culture=neutral, PublicKeyToken=b77a5c561934e089)",
      "ModuleOptionsHash": 15221144590354301703,
      "ModuleHash": "2c3978dde4bea25016b98080a1901eea",
      "LinkName": "9045309AB69254FE",
      "AssemblyDependencyIndices": [
        13,
        3,
        2,
        0
      ]
    },
    {
      "FullName": "Unity.Networking.Transport.UnityTransportProtocol, Unity.Networking.Transport, Version=0.0.0.0, Culture=neutral, PublicKeyToken=null::ComputePacketOverhead(Unity.Networking.Transport.NetworkDriver+Connection&, Unity.Networking.Transport, Version=0.0.0.0, Culture=neutral, PublicKeyToken=null|System.Int32&, mscorlib, Version=4.0.0.0, Culture=neutral, PublicKeyToken=b77a5c561934e089)",
      "ModuleOptionsHash": 15221144590354301703,
      "ModuleHash": "43ad4fa3d05f1009f49c78e567029e77",
      "LinkName": "6145DC50FD879086",
      "AssemblyDependencyIndices": [
        13,
        3,
        2
      ]
    },
    {
      "FullName": "Unity.Networking.Transport.UnreliableSequencedPipelineStage, Unity.Networking.Transport, Version=0.0.0.0, Culture=neutral, PublicKeyToken=null::InitializeConnection(System.Byte*, mscorlib, Version=4.0.0.0, Culture=neutral, PublicKeyToken=b77a5c561934e089|System.Int32, mscorlib, Version=4.0.0.0, Culture=neutral, PublicKeyToken=b77a5c561934e089|System.Byte*, mscorlib, Version=4.0.0.0, Culture=neutral, PublicKeyToken=b77a5c561934e089|System.Int32, mscorlib, Version=4.0.0.0, Culture=neutral, PublicKeyToken=b77a5c561934e089|System.Byte*, mscorlib, Version=4.0.0.0, Culture=neutral, PublicKeyToken=b77a5c561934e089|System.Int32, mscorlib, Version=4.0.0.0, Culture=neutral, PublicKeyToken=b77a5c561934e089|System.Byte*, mscorlib, Version=4.0.0.0, Culture=neutral, PublicKeyToken=b77a5c561934e089|System.Int32, mscorlib, Version=4.0.0.0, Culture=neutral, PublicKeyToken=b77a5c561934e089)",
      "ModuleOptionsHash": 15221144590354301703,
      "ModuleHash": "bbd2080da096a07637984b7f5f33a666",
      "LinkName": "8BCAA01A321CA107",
      "AssemblyDependencyIndices": [
        13,
        3,
        2
      ]
    },
    {
      "FullName": "Unity.Networking.Transport.UnityTransportProtocol, Unity.Networking.Transport, Version=0.0.0.0, Culture=neutral, PublicKeyToken=null::ProcessSendConnectionAccept(Unity.Networking.Transport.NetworkDriver+Connection&, Unity.Networking.Transport, Version=0.0.0.0, Culture=neutral, PublicKeyToken=null|Unity.Networking.Transport.NetworkSendInterface&, Unity.Networking.Transport, Version=0.0.0.0, Culture=neutral, PublicKeyToken=null|Unity.Networking.Transport.NetworkSendQueueHandle&, Unity.Networking.Transport, Version=0.0.0.0, Culture=neutral, PublicKeyToken=null|System.IntPtr, mscorlib, Version=4.0.0.0, Culture=neutral, PublicKeyToken=b77a5c561934e089)",
      "ModuleOptionsHash": 15221144590354301703,
      "ModuleHash": "69a5e021b524d831b3546fc8e5767b75",
      "LinkName": "16FDDBA27148F3F2",
      "AssemblyDependencyIndices": [
        13,
        3,
        2,
        5,
        0
      ]
    },
    {
      "FullName": "Unity.Networking.Transport.UnityTransportProtocol, Unity.Networking.Transport, Version=0.0.0.0, Culture=neutral, PublicKeyToken=null::ProcessSend(Unity.Networking.Transport.NetworkDriver+Connection&, Unity.Networking.Transport, Version=0.0.0.0, Culture=neutral, PublicKeyToken=null|System.Boolean, mscorlib, Version=4.0.0.0, Culture=neutral, PublicKeyToken=b77a5c561934e089|Unity.Networking.Transport.NetworkSendInterface&, Unity.Networking.Transport, Version=0.0.0.0, Culture=neutral, PublicKeyToken=null|Unity.Networking.Transport.NetworkInterfaceSendHandle&, Unity.Networking.Transport, Version=0.0.0.0, Culture=neutral, PublicKeyToken=null|Unity.Networking.Transport.NetworkSendQueueHandle&, Unity.Networking.Transport, Version=0.0.0.0, Culture=neutral, PublicKeyToken=null|System.IntPtr, mscorlib, Version=4.0.0.0, Culture=neutral, PublicKeyToken=b77a5c561934e089)",
      "ModuleOptionsHash": 15221144590354301703,
      "ModuleHash": "b98daac2da3683f15d9be14949e6146c",
      "LinkName": "BC8C83FADEE9F234",
      "AssemblyDependencyIndices": [
        13,
        3,
        2,
        5
      ]
    },
    {
      "FullName": "Unity.Networking.Transport.UnityTransportProtocol, Unity.Networking.Transport, Version=0.0.0.0, Culture=neutral, PublicKeyToken=null::Disconnect(Unity.Networking.Transport.NetworkDriver+Connection&, Unity.Networking.Transport, Version=0.0.0.0, Culture=neutral, PublicKeyToken=null|Unity.Networking.Transport.NetworkSendInterface&, Unity.Networking.Transport, Version=0.0.0.0, Culture=neutral, PublicKeyToken=null|Unity.Networking.Transport.NetworkSendQueueHandle&, Unity.Networking.Transport, Version=0.0.0.0, Culture=neutral, PublicKeyToken=null|System.IntPtr, mscorlib, Version=4.0.0.0, Culture=neutral, PublicKeyToken=b77a5c561934e089)",
      "ModuleOptionsHash": 15221144590354301703,
      "ModuleHash": "9a2663571f55fa315524cccd5f83c8ec",
      "LinkName": "F96C38DD1B7A724A",
      "AssemblyDependencyIndices": [
        13,
        3,
        2,
        5
      ]
    },
    {
      "FullName": "Unity.Networking.Transport.UnityTransportProtocol, Unity.Networking.Transport, Version=0.0.0.0, Culture=neutral, PublicKeyToken=null::Connect(Unity.Networking.Transport.NetworkDriver+Connection&, Unity.Networking.Transport, Version=0.0.0.0, Culture=neutral, PublicKeyToken=null|Unity.Networking.Transport.NetworkSendInterface&, Unity.Networking.Transport, Version=0.0.0.0, Culture=neutral, PublicKeyToken=null|Unity.Networking.Transport.NetworkSendQueueHandle&, Unity.Networking.Transport, Version=0.0.0.0, Culture=neutral, PublicKeyToken=null|System.IntPtr, mscorlib, Version=4.0.0.0, Culture=neutral, PublicKeyToken=b77a5c561934e089)",
      "ModuleOptionsHash": 15221144590354301703,
      "ModuleHash": "70c7e1efc69ab27ef8d4eb8be1174aeb",
      "LinkName": "FC6763BCF28B1569",
      "AssemblyDependencyIndices": [
        13,
        3,
        2,
        5
      ]
    },
    {
      "FullName": "Unity.Networking.Transport.UnityTransportProtocol, Unity.Networking.Transport, Version=0.0.0.0, Culture=neutral, PublicKeyToken=null::ProcessReceive(System.IntPtr, mscorlib, Version=4.0.0.0, Culture=neutral, PublicKeyToken=b77a5c561934e089|Unity.Networking.Transport.NetworkInterfaceEndPoint&, Unity.Networking.Transport, Version=0.0.0.0, Culture=neutral, PublicKeyToken=null|System.Int32, mscorlib, Version=4.0.0.0, Culture=neutral, PublicKeyToken=b77a5c561934e089|Unity.Networking.Transport.NetworkSendInterface&, Unity.Networking.Transport, Version=0.0.0.0, Culture=neutral, PublicKeyToken=null|Unity.Networking.Transport.NetworkSendQueueHandle&, Unity.Networking.Transport, Version=0.0.0.0, Culture=neutral, PublicKeyToken=null|System.IntPtr, mscorlib, Version=4.0.0.0, Culture=neutral, PublicKeyToken=b77a5c561934e089|Unity.Networking.Transport.ProcessPacketCommand&, Unity.Networking.Transport, Version=0.0.0.0, Culture=neutral, PublicKeyToken=null)",
      "ModuleOptionsHash": 15221144590354301703,
      "ModuleHash": "220153b71aae79a9baf7d84fe4428104",
      "LinkName": "5600D400EB80ABDE",
      "AssemblyDependencyIndices": [
        13,
        3,
        2,
        5
      ]
    },
    {
      "FullName": "Unity.Networking.Transport.UnityTransportProtocol, Unity.Networking.Transport, Version=0.0.0.0, Culture=neutral, PublicKeyToken=null::ProcessSendPing(Unity.Networking.Transport.NetworkDriver+Connection&, Unity.Networking.Transport, Version=0.0.0.0, Culture=neutral, PublicKeyToken=null|Unity.Networking.Transport.NetworkSendInterface&, Unity.Networking.Transport, Version=0.0.0.0, Culture=neutral, PublicKeyToken=null|Unity.Networking.Transport.NetworkSendQueueHandle&, Unity.Networking.Transport, Version=0.0.0.0, Culture=neutral, PublicKeyToken=null|System.IntPtr, mscorlib, Version=4.0.0.0, Culture=neutral, PublicKeyToken=b77a5c561934e089)",
      "ModuleOptionsHash": 15221144590354301703,
      "ModuleHash": "7f2d7ad08e7f8263f6ec60f42b5241c6",
      "LinkName": "B45934A736DED5B5",
      "AssemblyDependencyIndices": [
        13,
        3,
        2,
        5
      ]
    },
    {
      "FullName": "Unity.Networking.Transport.UnityTransportProtocol, Unity.Networking.Transport, Version=0.0.0.0, Culture=neutral, PublicKeyToken=null::ProcessSendPong(Unity.Networking.Transport.NetworkDriver+Connection&, Unity.Networking.Transport, Version=0.0.0.0, Culture=neutral, PublicKeyToken=null|Unity.Networking.Transport.NetworkSendInterface&, Unity.Networking.Transport, Version=0.0.0.0, Culture=neutral, PublicKeyToken=null|Unity.Networking.Transport.NetworkSendQueueHandle&, Unity.Networking.Transport, Version=0.0.0.0, Culture=neutral, PublicKeyToken=null|System.IntPtr, mscorlib, Version=4.0.0.0, Culture=neutral, PublicKeyToken=b77a5c561934e089)",
      "ModuleOptionsHash": 15221144590354301703,
      "ModuleHash": "6afb76e06ceabc6faf130369f863f873",
      "LinkName": "4A8E1A36471488BB",
      "AssemblyDependencyIndices": [
        13,
        3,
        2,
        5
      ]
    },
    {
      "FullName": "Unity.Networking.Transport.TLS.SecureNetworkProtocol, Unity.Networking.Transport, Version=0.0.0.0, Culture=neutral, PublicKeyToken=null::ComputePacketOverhead(Unity.Networking.Transport.NetworkDriver+Connection&, Unity.Networking.Transport, Version=0.0.0.0, Culture=neutral, PublicKeyToken=null|System.Int32&, mscorlib, Version=4.0.0.0, Culture=neutral, PublicKeyToken=b77a5c561934e089)",
      "ModuleOptionsHash": 15221144590354301703,
      "ModuleHash": "79fa7ef24ada7bd4bfc0c56c709d8375",
      "LinkName": "2AFC892CC843E191",
      "AssemblyDependencyIndices": [
        13,
        3,
        2
      ]
    },
    {
      "FullName": "Unity.Networking.Transport.UnityTransportProtocol, Unity.Networking.Transport, Version=0.0.0.0, Culture=neutral, PublicKeyToken=null::Update(System.Int64, mscorlib, Version=4.0.0.0, Culture=neutral, PublicKeyToken=b77a5c561934e089|Unity.Networking.Transport.NetworkSendInterface&, Unity.Networking.Transport, Version=0.0.0.0, Culture=neutral, PublicKeyToken=null|Unity.Networking.Transport.NetworkSendQueueHandle&, Unity.Networking.Transport, Version=0.0.0.0, Culture=neutral, PublicKeyToken=null|System.IntPtr, mscorlib, Version=4.0.0.0, Culture=neutral, PublicKeyToken=b77a5c561934e089)",
      "ModuleOptionsHash": 15221144590354301703,
      "ModuleHash": "cd476907aca5deaf2268168167f48e41",
      "LinkName": "9832D57B7D83EA86",
      "AssemblyDependencyIndices": [
        13,
        3,
        2,
        5
      ]
    },
    {
      "FullName": "Unity.Networking.Transport.TLS.SecureNetworkProtocol, Unity.Networking.Transport, Version=0.0.0.0, Culture=neutral, PublicKeyToken=null::ProcessSend(Unity.Networking.Transport.NetworkDriver+Connection&, Unity.Networking.Transport, Version=0.0.0.0, Culture=neutral, PublicKeyToken=null|System.Boolean, mscorlib, Version=4.0.0.0, Culture=neutral, PublicKeyToken=b77a5c561934e089|Unity.Networking.Transport.NetworkSendInterface&, Unity.Networking.Transport, Version=0.0.0.0, Culture=neutral, PublicKeyToken=null|Unity.Networking.Transport.NetworkInterfaceSendHandle&, Unity.Networking.Transport, Version=0.0.0.0, Culture=neutral, PublicKeyToken=null|Unity.Networking.Transport.NetworkSendQueueHandle&, Unity.Networking.Transport, Version=0.0.0.0, Culture=neutral, PublicKeyToken=null|System.IntPtr, mscorlib, Version=4.0.0.0, Culture=neutral, PublicKeyToken=b77a5c561934e089)",
      "ModuleOptionsHash": 15221144590354301703,
      "ModuleHash": "d8605c7ed770ddd74f35820fc1ed72cb",
      "LinkName": "49FC35E14431E063",
      "AssemblyDependencyIndices": [
        13,
        3,
        2,
        1,
        17,
        0,
        5,
        6,
        4,
        14
      ]
    },
    {
      "FullName": "Unity.Networking.Transport.TLS.SecureNetworkProtocol, Unity.Networking.Transport, Version=0.0.0.0, Culture=neutral, PublicKeyToken=null::ProcessReceive(System.IntPtr, mscorlib, Version=4.0.0.0, Culture=neutral, PublicKeyToken=b77a5c561934e089|Unity.Networking.Transport.NetworkInterfaceEndPoint&, Unity.Networking.Transport, Version=0.0.0.0, Culture=neutral, PublicKeyToken=null|System.Int32, mscorlib, Version=4.0.0.0, Culture=neutral, PublicKeyToken=b77a5c561934e089|Unity.Networking.Transport.NetworkSendInterface&, Unity.Networking.Transport, Version=0.0.0.0, Culture=neutral, PublicKeyToken=null|Unity.Networking.Transport.NetworkSendQueueHandle&, Unity.Networking.Transport, Version=0.0.0.0, Culture=neutral, PublicKeyToken=null|System.IntPtr, mscorlib, Version=4.0.0.0, Culture=neutral, PublicKeyToken=b77a5c561934e089|Unity.Networking.Transport.ProcessPacketCommand&, Unity.Networking.Transport, Version=0.0.0.0, Culture=neutral, PublicKeyToken=null)",
      "ModuleOptionsHash": 15221144590354301703,
      "ModuleHash": "e29d1077305496bc4c0807739e795228",
      "LinkName": "2170EE3B2ED43638",
      "AssemblyDependencyIndices": [
        13,
        3,
        2,
        1,
        17,
        0,
        5,
        6,
        4,
        14
      ]
    },
    {
      "FullName": "Unity.Networking.Transport.TLS.SecureNetworkProtocol, Unity.Networking.Transport, Version=0.0.0.0, Culture=neutral, PublicKeyToken=null::ProcessSendConnectionAccept(Unity.Networking.Transport.NetworkDriver+Connection&, Unity.Networking.Transport, Version=0.0.0.0, Culture=neutral, PublicKeyToken=null|Unity.Networking.Transport.NetworkSendInterface&, Unity.Networking.Transport, Version=0.0.0.0, Culture=neutral, PublicKeyToken=null|Unity.Networking.Transport.NetworkSendQueueHandle&, Unity.Networking.Transport, Version=0.0.0.0, Culture=neutral, PublicKeyToken=null|System.IntPtr, mscorlib, Version=4.0.0.0, Culture=neutral, PublicKeyToken=b77a5c561934e089)",
      "ModuleOptionsHash": 15221144590354301703,
      "ModuleHash": "262acf2429bbe197450e5c9685b13bb3",
      "LinkName": "27B13EB60371BCFB",
      "AssemblyDependencyIndices": [
        13,
        17,
        3,
        2,
        1,
        0,
        5,
        4
      ]
    },
    {
      "FullName": "Unity.Networking.Transport.TLS.SecureNetworkProtocol, Unity.Networking.Transport, Version=0.0.0.0, Culture=neutral, PublicKeyToken=null::Connect(Unity.Networking.Transport.NetworkDriver+Connection&, Unity.Networking.Transport, Version=0.0.0.0, Culture=neutral, PublicKeyToken=null|Unity.Networking.Transport.NetworkSendInterface&, Unity.Networking.Transport, Version=0.0.0.0, Culture=neutral, PublicKeyToken=null|Unity.Networking.Transport.NetworkSendQueueHandle&, Unity.Networking.Transport, Version=0.0.0.0, Culture=neutral, PublicKeyToken=null|System.IntPtr, mscorlib, Version=4.0.0.0, Culture=neutral, PublicKeyToken=b77a5c561934e089)",
      "ModuleOptionsHash": 15221144590354301703,
      "ModuleHash": "9aca0a03a5107cffb2322deffc78dcee",
      "LinkName": "61EB38371943037B",
      "AssemblyDependencyIndices": [
        13,
        3,
        2,
        1,
        17,
        0,
        5,
        6,
        4,
        14
      ]
    },
    {
      "FullName": "Unity.Networking.Transport.TLS.SecureNetworkProtocol, Unity.Networking.Transport, Version=0.0.0.0, Culture=neutral, PublicKeyToken=null::WriteConnectionAcceptMessage(Unity.Networking.Transport.NetworkDriver+Connection&, Unity.Networking.Transport, Version=0.0.0.0, Culture=neutral, PublicKeyToken=null|System.Byte*, mscorlib, Version=4.0.0.0, Culture=neutral, PublicKeyToken=b77a5c561934e089|System.Int32, mscorlib, Version=4.0.0.0, Culture=neutral, PublicKeyToken=b77a5c561934e089)",
      "ModuleOptionsHash": 15221144590354301703,
      "ModuleHash": "56e6c291363e2bd5556585cc5852bd17",
      "LinkName": "81426F6E61CC87EF",
      "AssemblyDependencyIndices": [
        13,
        3,
        2
      ]
    },
    {
      "FullName": "Unity.Networking.Transport.TLS.SecureNetworkProtocol, Unity.Networking.Transport, Version=0.0.0.0, Culture=neutral, PublicKeyToken=null::Disconnect(Unity.Networking.Transport.NetworkDriver+Connection&, Unity.Networking.Transport, Version=0.0.0.0, Culture=neutral, PublicKeyToken=null|Unity.Networking.Transport.NetworkSendInterface&, Unity.Networking.Transport, Version=0.0.0.0, Culture=neutral, PublicKeyToken=null|Unity.Networking.Transport.NetworkSendQueueHandle&, Unity.Networking.Transport, Version=0.0.0.0, Culture=neutral, PublicKeyToken=null|System.IntPtr, mscorlib, Version=4.0.0.0, Culture=neutral, PublicKeyToken=b77a5c561934e089)",
      "ModuleOptionsHash": 15221144590354301703,
      "ModuleHash": "eb8a91a354ee0f22fe6347b83339e729",
      "LinkName": "9836F834E418561C",
      "AssemblyDependencyIndices": [
        13,
        3,
        2,
        1,
        0,
        17,
        5,
        4
      ]
    },
    {
      "FullName": "Unity.Networking.Transport.Relay.RelayNetworkProtocol, Unity.Networking.Transport, Version=0.0.0.0, Culture=neutral, PublicKeyToken=null::ComputePacketOverhead(Unity.Networking.Transport.NetworkDriver+Connection&, Unity.Networking.Transport, Version=0.0.0.0, Culture=neutral, PublicKeyToken=null|System.Int32&, mscorlib, Version=4.0.0.0, Culture=neutral, PublicKeyToken=b77a5c561934e089)",
      "ModuleOptionsHash": 15221144590354301703,
      "ModuleHash": "a73e0f92b7d55184f15587f92ed4b208",
      "LinkName": "FADA991382883E7C",
      "AssemblyDependencyIndices": [
        13,
        3,
        2
      ]
    },
    {
      "FullName": "Unity.Networking.Transport.TLS.SecureNetworkProtocol, Unity.Networking.Transport, Version=0.0.0.0, Culture=neutral, PublicKeyToken=null::ProcessSendPing(Unity.Networking.Transport.NetworkDriver+Connection&, Unity.Networking.Transport, Version=0.0.0.0, Culture=neutral, PublicKeyToken=null|Unity.Networking.Transport.NetworkSendInterface&, Unity.Networking.Transport, Version=0.0.0.0, Culture=neutral, PublicKeyToken=null|Unity.Networking.Transport.NetworkSendQueueHandle&, Unity.Networking.Transport, Version=0.0.0.0, Culture=neutral, PublicKeyToken=null|System.IntPtr, mscorlib, Version=4.0.0.0, Culture=neutral, PublicKeyToken=b77a5c561934e089)",
      "ModuleOptionsHash": 15221144590354301703,
      "ModuleHash": "935cbd778ebcf0a4ad028d4c2d4fd63f",
      "LinkName": "0ECCF3EF2FFF071C",
      "AssemblyDependencyIndices": [
        13,
        3,
        2,
        1,
        0,
        17,
        5,
        4
      ]
    },
    {
      "FullName": "Unity.Networking.Transport.TLS.SecureNetworkProtocol, Unity.Networking.Transport, Version=0.0.0.0, Culture=neutral, PublicKeyToken=null::Update(System.Int64, mscorlib, Version=4.0.0.0, Culture=neutral, PublicKeyToken=b77a5c561934e089|Unity.Networking.Transport.NetworkSendInterface&, Unity.Networking.Transport, Version=0.0.0.0, Culture=neutral, PublicKeyToken=null|Unity.Networking.Transport.NetworkSendQueueHandle&, Unity.Networking.Transport, Version=0.0.0.0, Culture=neutral, PublicKeyToken=null|System.IntPtr, mscorlib, Version=4.0.0.0, Culture=neutral, PublicKeyToken=b77a5c561934e089)",
      "ModuleOptionsHash": 15221144590354301703,
      "ModuleHash": "67694146a695b10256615c7c48789145",
      "LinkName": "CBE1CC8779D3C9FD",
      "AssemblyDependencyIndices": [
        13,
        3,
        2,
        1,
        0,
        17,
        5,
        4,
        6
      ]
    },
    {
      "FullName": "Unity.Networking.Transport.TLS.SecureNetworkProtocol, Unity.Networking.Transport, Version=0.0.0.0, Culture=neutral, PublicKeyToken=null::ProcessSendPong(Unity.Networking.Transport.NetworkDriver+Connection&, Unity.Networking.Transport, Version=0.0.0.0, Culture=neutral, PublicKeyToken=null|Unity.Networking.Transport.NetworkSendInterface&, Unity.Networking.Transport, Version=0.0.0.0, Culture=neutral, PublicKeyToken=null|Unity.Networking.Transport.NetworkSendQueueHandle&, Unity.Networking.Transport, Version=0.0.0.0, Culture=neutral, PublicKeyToken=null|System.IntPtr, mscorlib, Version=4.0.0.0, Culture=neutral, PublicKeyToken=b77a5c561934e089)",
      "ModuleOptionsHash": 15221144590354301703,
      "ModuleHash": "ee8cf894386a6bea0f84a4e09d89612d",
      "LinkName": "E289A67D92121784",
      "AssemblyDependencyIndices": [
        13,
        3,
        2,
        1,
        0,
        17,
        5,
        4
      ]
    },
    {
      "FullName": "Unity.Networking.Transport.Relay.RelayNetworkProtocol, Unity.Networking.Transport, Version=0.0.0.0, Culture=neutral, PublicKeyToken=null::ProcessReceive(System.IntPtr, mscorlib, Version=4.0.0.0, Culture=neutral, PublicKeyToken=b77a5c561934e089|Unity.Networking.Transport.NetworkInterfaceEndPoint&, Unity.Networking.Transport, Version=0.0.0.0, Culture=neutral, PublicKeyToken=null|System.Int32, mscorlib, Version=4.0.0.0, Culture=neutral, PublicKeyToken=b77a5c561934e089|Unity.Networking.Transport.NetworkSendInterface&, Unity.Networking.Transport, Version=0.0.0.0, Culture=neutral, PublicKeyToken=null|Unity.Networking.Transport.NetworkSendQueueHandle&, Unity.Networking.Transport, Version=0.0.0.0, Culture=neutral, PublicKeyToken=null|System.IntPtr, mscorlib, Version=4.0.0.0, Culture=neutral, PublicKeyToken=b77a5c561934e089|Unity.Networking.Transport.ProcessPacketCommand&, Unity.Networking.Transport, Version=0.0.0.0, Culture=neutral, PublicKeyToken=null)",
      "ModuleOptionsHash": 15221144590354301703,
      "ModuleHash": "b10f6485cbd635da608d7deb0753e1e0",
      "LinkName": "EB31CBC7638F73CC",
      "AssemblyDependencyIndices": [
        13,
        3,
        2,
        17,
        0,
        5,
        4
      ]
    },
    {
      "FullName": "Unity.Networking.Transport.Relay.RelayNetworkProtocol, Unity.Networking.Transport, Version=0.0.0.0, Culture=neutral, PublicKeyToken=null::ProcessSendConnectionAccept(Unity.Networking.Transport.NetworkDriver+Connection&, Unity.Networking.Transport, Version=0.0.0.0, Culture=neutral, PublicKeyToken=null|Unity.Networking.Transport.NetworkSendInterface&, Unity.Networking.Transport, Version=0.0.0.0, Culture=neutral, PublicKeyToken=null|Unity.Networking.Transport.NetworkSendQueueHandle&, Unity.Networking.Transport, Version=0.0.0.0, Culture=neutral, PublicKeyToken=null|System.IntPtr, mscorlib, Version=4.0.0.0, Culture=neutral, PublicKeyToken=b77a5c561934e089)",
      "ModuleOptionsHash": 15221144590354301703,
      "ModuleHash": "a19cacc9b6778f25584091533dabff0d",
      "LinkName": "08E0992CBFDA2BCB",
      "AssemblyDependencyIndices": [
        13,
        3,
        2,
        5,
        0,
        17
      ]
    },
    {
      "FullName": "Unity.Networking.Transport.Relay.RelayNetworkProtocol, Unity.Networking.Transport, Version=0.0.0.0, Culture=neutral, PublicKeyToken=null::ProcessSend(Unity.Networking.Transport.NetworkDriver+Connection&, Unity.Networking.Transport, Version=0.0.0.0, Culture=neutral, PublicKeyToken=null|System.Boolean, mscorlib, Version=4.0.0.0, Culture=neutral, PublicKeyToken=b77a5c561934e089|Unity.Networking.Transport.NetworkSendInterface&, Unity.Networking.Transport, Version=0.0.0.0, Culture=neutral, PublicKeyToken=null|Unity.Networking.Transport.NetworkInterfaceSendHandle&, Unity.Networking.Transport, Version=0.0.0.0, Culture=neutral, PublicKeyToken=null|Unity.Networking.Transport.NetworkSendQueueHandle&, Unity.Networking.Transport, Version=0.0.0.0, Culture=neutral, PublicKeyToken=null|System.IntPtr, mscorlib, Version=4.0.0.0, Culture=neutral, PublicKeyToken=b77a5c561934e089)",
      "ModuleOptionsHash": 15221144590354301703,
      "ModuleHash": "f0f4dc4c1417e9e597935e5fcc739f1f",
      "LinkName": "6D80D07EDB00D6C8",
      "AssemblyDependencyIndices": [
        13,
        3,
        2,
        17,
        0,
        5
      ]
    },
    {
      "FullName": "Unity.Networking.Transport.Relay.RelayNetworkProtocol, Unity.Networking.Transport, Version=0.0.0.0, Culture=neutral, PublicKeyToken=null::Connect(Unity.Networking.Transport.NetworkDriver+Connection&, Unity.Networking.Transport, Version=0.0.0.0, Culture=neutral, PublicKeyToken=null|Unity.Networking.Transport.NetworkSendInterface&, Unity.Networking.Transport, Version=0.0.0.0, Culture=neutral, PublicKeyToken=null|Unity.Networking.Transport.NetworkSendQueueHandle&, Unity.Networking.Transport, Version=0.0.0.0, Culture=neutral, PublicKeyToken=null|System.IntPtr, mscorlib, Version=4.0.0.0, Culture=neutral, PublicKeyToken=b77a5c561934e089)",
      "ModuleOptionsHash": 15221144590354301703,
      "ModuleHash": "2b15a2f88c11864cd9c04e6961cb6898",
      "LinkName": "625069EDE13C3AE2",
      "AssemblyDependencyIndices": [
        13,
        3,
        2,
        5,
        17,
        0
      ]
    },
    {
      "FullName": "Unity.Networking.Transport.Relay.RelayNetworkProtocol, Unity.Networking.Transport, Version=0.0.0.0, Culture=neutral, PublicKeyToken=null::Disconnect(Unity.Networking.Transport.NetworkDriver+Connection&, Unity.Networking.Transport, Version=0.0.0.0, Culture=neutral, PublicKeyToken=null|Unity.Networking.Transport.NetworkSendInterface&, Unity.Networking.Transport, Version=0.0.0.0, Culture=neutral, PublicKeyToken=null|Unity.Networking.Transport.NetworkSendQueueHandle&, Unity.Networking.Transport, Version=0.0.0.0, Culture=neutral, PublicKeyToken=null|System.IntPtr, mscorlib, Version=4.0.0.0, Culture=neutral, PublicKeyToken=b77a5c561934e089)",
      "ModuleOptionsHash": 15221144590354301703,
      "ModuleHash": "eed44e60fd70b0b2ac93799358cae0c5",
      "LinkName": "C7F1F79F3FBDA990",
      "AssemblyDependencyIndices": [
        13,
        3,
        2,
        5,
        17,
        0
      ]
    },
    {
      "FullName": "Unity.Networking.Transport.Relay.RelayNetworkProtocol, Unity.Networking.Transport, Version=0.0.0.0, Culture=neutral, PublicKeyToken=null::ProcessSendPing(Unity.Networking.Transport.NetworkDriver+Connection&, Unity.Networking.Transport, Version=0.0.0.0, Culture=neutral, PublicKeyToken=null|Unity.Networking.Transport.NetworkSendInterface&, Unity.Networking.Transport, Version=0.0.0.0, Culture=neutral, PublicKeyToken=null|Unity.Networking.Transport.NetworkSendQueueHandle&, Unity.Networking.Transport, Version=0.0.0.0, Culture=neutral, PublicKeyToken=null|System.IntPtr, mscorlib, Version=4.0.0.0, Culture=neutral, PublicKeyToken=b77a5c561934e089)",
      "ModuleOptionsHash": 15221144590354301703,
      "ModuleHash": "57b153072208afeb764a279bf29bba49",
      "LinkName": "73660E044308A724",
      "AssemblyDependencyIndices": [
        13,
        3,
        2,
        5,
        17,
        0
      ]
    },
    {
      "FullName": "Unity.Networking.Transport.Relay.RelayNetworkProtocol, Unity.Networking.Transport, Version=0.0.0.0, Culture=neutral, PublicKeyToken=null::ProcessSendPong(Unity.Networking.Transport.NetworkDriver+Connection&, Unity.Networking.Transport, Version=0.0.0.0, Culture=neutral, PublicKeyToken=null|Unity.Networking.Transport.NetworkSendInterface&, Unity.Networking.Transport, Version=0.0.0.0, Culture=neutral, PublicKeyToken=null|Unity.Networking.Transport.NetworkSendQueueHandle&, Unity.Networking.Transport, Version=0.0.0.0, Culture=neutral, PublicKeyToken=null|System.IntPtr, mscorlib, Version=4.0.0.0, Culture=neutral, PublicKeyToken=b77a5c561934e089)",
      "ModuleOptionsHash": 15221144590354301703,
      "ModuleHash": "7b08d51ce9b89a89c4c3f640af96e96d",
      "LinkName": "60150A89E3631703",
      "AssemblyDependencyIndices": [
        13,
        3,
        2,
        5,
        17,
        0
      ]
    },
    {
      "FullName": "Unity.Networking.Transport.Relay.RelayNetworkProtocol, Unity.Networking.Transport, Version=0.0.0.0, Culture=neutral, PublicKeyToken=null::Update(System.Int64, mscorlib, Version=4.0.0.0, Culture=neutral, PublicKeyToken=b77a5c561934e089|Unity.Networking.Transport.NetworkSendInterface&, Unity.Networking.Transport, Version=0.0.0.0, Culture=neutral, PublicKeyToken=null|Unity.Networking.Transport.NetworkSendQueueHandle&, Unity.Networking.Transport, Version=0.0.0.0, Culture=neutral, PublicKeyToken=null|System.IntPtr, mscorlib, Version=4.0.0.0, Culture=neutral, PublicKeyToken=b77a5c561934e089)",
      "ModuleOptionsHash": 15221144590354301703,
      "ModuleHash": "25f4ba2b7c5c5d278bed04767f0cb4ac",
      "LinkName": "2FF613DAFB615C9D",
      "AssemblyDependencyIndices": [
        13,
        3,
        2,
        17,
        0,
        5,
        1,
        6
      ]
    }
  ]
}